kitayo
test_js_string_utf_8.js:38 utf8 ABCDE: 5.35888671875ms
test_js_string_utf_8.js:59 utf8 setABCDE: 4.999267578125ms
test_js_string_utf_8.js:38 utf8 ABCDE: 6.6669921875ms
test_js_string_utf_8.js:59 utf8 setABCDE: 6.225830078125ms
test_js_string_utf_8.js:38 utf8 ABCDE: 5.239990234375ms
test_js_string_utf_8.js:59 utf8 setABCDE: 4.985107421875ms
test_js_string_utf_8.js:38 utf8 あああああ: 7.134033203125ms
test_js_string_utf_8.js:59 utf8 setあああああ: 6.51611328125ms
test_js_string_utf_8.js:38 utf8 あああああ: 5.662841796875ms
test_js_string_utf_8.js:59 utf8 setあああああ: 4.8798828125ms
test_js_string_utf_8.js:38 utf8 あああああ: 7.18798828125ms
test_js_string_utf_8.js:59 utf8 setあああああ: 4.944091796875ms
test_js_string_utf_8.js:38 utf8 ABCDEFGHIJKLMNOPQRSTUVWXYZABCDEFGHIJKLMNOPQRSTUVWXYZ: 35.22216796875ms
test_js_string_utf_8.js:59 utf8 setABCDEFGHIJKLMNOPQRSTUVWXYZABCDEFGHIJKLMNOPQRSTUVWXYZ: 4.239990234375ms
test_js_string_utf_8.js:38 utf8 ABCDEFGHIJKLMNOPQRSTUVWXYZABCDEFGHIJKLMNOPQRSTUVWXYZ: 6.049072265625ms
test_js_string_utf_8.js:59 utf8 setABCDEFGHIJKLMNOPQRSTUVWXYZABCDEFGHIJKLMNOPQRSTUVWXYZ: 4.25927734375ms
test_js_string_utf_8.js:38 utf8 ABCDEFGHIJKLMNOPQRSTUVWXYZABCDEFGHIJKLMNOPQRSTUVWXYZ: 5.5458984375ms
test_js_string_utf_8.js:59 utf8 setABCDEFGHIJKLMNOPQRSTUVWXYZABCDEFGHIJKLMNOPQRSTUVWXYZ: 4.312255859375ms
test_js_string_utf_8.js:38 utf8 あいうえおかきくけこさしすせそたちつてとなにぬねのはひふへほまみむめもやゆよらりるれろわをん: 6.59619140625ms
test_js_string_utf_8.js:59 utf8 setあいうえおかきくけこさしすせそたちつてとなにぬねのはひふへほまみむめもやゆよらりるれろわをん: 7.5361328125ms
test_js_string_utf_8.js:38 utf8 あいうえおかきくけこさしすせそたちつてとなにぬねのはひふへほまみむめもやゆよらりるれろわをん: 6.505859375ms
test_js_string_utf_8.js:59 utf8 setあいうえおかきくけこさしすせそたちつてとなにぬねのはひふへほまみむめもやゆよらりるれろわをん: 7.875ms
test_js_string_utf_8.js:38 utf8 あいうえおかきくけこさしすせそたちつてとなにぬねのはひふへほまみむめもやゆよらりるれろわをん: 41.396728515625ms
test_js_string_utf_8.js:59 utf8 setあいうえおかきくけこさしすせそたちつてとなにぬねのはひふへほまみむめもやゆよらりるれろわをん: 6.68310546875ms
test_js_string_utf_8.js:38 utf8 😃😁😂: 3.96875ms
test_js_string_utf_8.js:59 utf8 set😃😁😂: 3.809814453125ms
test_js_string_utf_8.js:38 utf8 😃😁😂: 3.742919921875ms
test_js_string_utf_8.js:59 utf8 set😃😁😂: 3.69091796875ms
test_js_string_utf_8.js:38 utf8 😃😁😂: 5.578857421875ms
test_js_string_utf_8.js:59 utf8 set😃😁😂: 3.93896484375ms
test_js_string_utf_8.js:38 utf8 😃😁😂😃😁😂😃😁😂😃😁😂😃😁😂😃😁😂😃😁😂😃😁😂😃😁😂😃😁😂😃😁😂😃😁😂😃😁😂😃😁😂😃😁😂😃😁😂: 5.844970703125ms
test_js_string_utf_8.js:59 utf8 set😃😁😂😃😁😂😃😁😂😃😁😂😃😁😂😃😁😂😃😁😂😃😁😂😃😁😂😃😁😂😃😁😂😃😁😂😃😁😂😃😁😂😃😁😂😃😁😂: 8.094970703125ms
test_js_string_utf_8.js:38 utf8 😃😁😂😃😁😂😃😁😂😃😁😂😃😁😂😃😁😂😃😁😂😃😁😂😃😁😂😃😁😂😃😁😂😃😁😂😃😁😂😃😁😂😃😁😂😃😁😂: 6.0068359375ms
test_js_string_utf_8.js:59 ut