sb ABCDE: 5.0830078125ms
test_js_string_sb.js:29 sb ABCDE: 2.462890625ms
test_js_string_sb.js:29 sb ABCDE: 6.237060546875ms
test_js_string_sb.js:29 sb ABCDE: 2.66015625ms
test_js_string_sb.js:29 sb ABCDE: 2.847900390625ms
test_js_string_sb.js:29 sb ABCDE: 3.1640625ms
test_js_string_sb.js:29 sb ABCDE: 6.07177734375ms
test_js_string_sb.js:29 sb ABCDE: 2.4990234375ms
test_js_string_sb.js:29 sb ABCDE: 2.703857421875ms
test_js_string_sb.js:29 sb ABCDE: 2.5029296875ms
test_js_string_sb.js:42 sb uncheckedABCDE: 2.398193359375ms
test_js_string_sb.js:42 sb uncheckedABCDE: 2.23486328125ms
test_js_string_sb.js:42 sb uncheckedABCDE: 5.971923828125ms
test_js_string_sb.js:42 sb uncheckedABCDE: 2.429931640625ms
test_js_string_sb.js:42 sb uncheckedABCDE: 2.409912109375ms
test_js_string_sb.js:42 sb uncheckedABCDE: 2.5ms
test_js_string_sb.js:42 sb uncheckedABCDE: 2.219970703125ms
test_js_string_sb.js:42 sb uncheckedABCDE: 5.22216796875ms
test_js_string_sb.js:42 sb uncheckedABCDE: 2.22802734375ms
test_js_string_sb.js:42 sb uncheckedABCDE: 2.21533203125ms
test_js_string_sb.js:56 sb arrayABCDE: 5.48876953125ms
test_js_string_sb.js:56 sb arrayABCDE: 9.107177734375ms
test_js_string_sb.js:56 sb arrayABCDE: 5.559814453125ms
test_js_string_sb.js:56 sb arrayABCDE: 9.5068359375ms
test_js_string_sb.js:56 sb arrayABCDE: 5.4951171875ms
test_js_string_sb.js:56 sb arrayABCDE: 5.02001953125ms
test_js_string_sb.js:56 sb arrayABCDE: 8.697998046875ms
test_js_string_sb.js:56 sb arrayABCDE: 5.648681640625ms
test_js_string_sb.js:56 sb arrayABCDE: 6.94482421875ms
test_js_string_sb.js:56 sb arrayABCDE: 5.97900390625ms
test_js_string_sb.js:70 sb unchecked arrayABCDE: 5.594970703125ms
test_js_string_sb.js:70 sb unchecked arrayABCDE: 7.977783203125ms
test_js_string_sb.js:70 sb unchecked arrayABCDE: 5.325927734375ms
test_js_string_sb.js:70 sb unchecked arrayABCDE: 8.342041015625ms
test_js_string_sb.js:70 sb unchecked arrayABCDE: 5.519287109375ms
test_js_string_sb.js:70 sb unchecked arrayABCDE: 5.27392578125ms
test_js_string_sb.js:70 sb unchecked arrayABCDE: 12.503173828125ms
test_js_string_sb.js:70 sb unchecked arrayABCDE: 7.505126953125ms
test_js_string_sb.js:70 sb unchecked arrayABCDE: 6.39892578125ms
test_js_string_sb.js:70 sb unchecked arrayABCDE: 6.63916015625ms
test_js_string_sb.js:29 sb あああああ: 5.92578125ms
test_js_string_sb.js:29 sb あああああ: 2.84521484375ms
test_js_string_sb.js:29 sb あああああ: 3.135986328125ms
test_js_string_sb.js:29 sb あああああ: 3ms
test_js_string_sb.js:29 sb あああああ: 6.7412109375ms
test_js_string_sb.js:29 sb あああああ: 3.027099609375ms
test_js_string_sb.js:29 sb あああああ: 2.861083984375ms
test_js_string_sb.js:29 sb あああああ: 2.9189453125ms
test_js_string_sb.js:29 sb あああああ: 8.502197265625ms
test_js_string_sb.js:29 sb あああああ: 2.89794921875ms
test_js_string_sb.js:42 sb uncheckedあああああ: 2.612060546875ms
test_js_string_sb.js:42 sb uncheckedあああああ: 2.5791015625ms
test_js_string_sb.js:42 sb uncheckedあああああ: 8.650146484375ms
test_js_string_sb.js:42 sb uncheckedあああああ: 2.578125ms
test_js_string_sb.js:42 sb uncheckedあああああ: 2.7119140625ms
test_js_string_sb.js:42 sb uncheckedあああああ: 2.469970703125ms
test_js_string_sb.js:42 sb uncheckedあああああ: 4.853759765625ms
test_js_string_sb.js:42 sb uncheckedあああああ: 3.169921875ms
test_js_string_sb.js:42 sb uncheckedあああああ: 2.590087890625ms
test_js_string_sb.js:42 sb uncheckedあああああ: 2.7177734375ms
test_js_string_sb.js:56 sb arrayあああああ: 8.347900390625ms
test_js_string_sb.js:56 sb arrayあああああ: 6.613037109375ms
test_js_string_sb.js:56 sb arrayあああああ: 95.342041015625ms
test_js_string_sb.js:56 sb arrayあああああ: 4.218017578125ms
test_js_string_sb.js:56 sb arrayあああああ: 4.012939453125ms
test_js_string_sb.js:56 sb arrayあああああ: 8.7080078125ms
test_js_string_sb.js:56 sb arrayあああああ: 4.266845703125ms
test_js_string_sb.js:56 sb arrayあああああ: 3.920654296875ms
test_js_string_sb.js:56 sb arrayあああああ: 6.658935546875ms
test_js_string_sb.js:56 sb arrayあああああ: 4.868896484375ms
test_js_string_sb.js:70 sb unchecked arrayあああああ: 4.329833984375ms
test_js_string_sb.js:70 sb unchecked arrayあああああ: 7.114990234375ms
test_js_string_sb.js:70 sb unchecked arrayあああああ: 4.2568359375ms
test_js_string_sb.js:70 sb unchecked arrayあああああ: 3.93115234375ms
test_js_string_sb.js:70 sb unchecked arrayあああああ: 7.701904296875ms
test_js_string_sb.js:70 sb unchecked arrayあああああ: 4.111083984375ms
test_js_string_sb.js:70 sb unchecked arrayあああああ: 4.026123046875ms
test_js_string_sb.js:70 sb unchecked arrayあああああ: 6.671875ms
test_js_string_sb.js:70 sb unchecked arrayあああああ: 4.279052734375ms
test_js_string_sb.js:70 sb unchecked arrayあああああ: 4.4140625ms
test_js_string_sb.js:29 sb ABCDEFGHIJKLMNOPQRSTUVWXYZABCDEFGHIJKLMNOPQRSTUVWXYZ: 3.34912109375ms
test_js_string_sb.js:29 sb ABCDEFGHIJKLMNOPQRSTUVWXYZABCDEFGHIJKLMNOPQRSTUVWXYZ: 7.794921875ms
test_js_string_sb.js:29 sb ABCDEFGHIJKLMNOPQRSTUVWXYZABCDEFGHIJKLMNOPQRSTUVWXYZ: 3.48779296875ms
test_js_string_sb.js:29 sb ABCDEFGHIJKLMNOPQRSTUVWXYZABCDEFGHIJKLMNOPQRSTUVWXYZ: 3.346923828125ms
test_js_string_sb.js:29 sb ABCDEFGHIJKLMNOPQRSTUVWXYZABCDEFGHIJKLMNOPQRSTUVWXYZ: 5.39990234375ms
test_js_string_sb.js:29 sb ABCDEFGHIJKLMNOPQRSTUVWXYZABCDEFGHIJKLMNOPQRSTUVWXYZ: 3.986083984375ms
test_js_string_sb.js:29 sb ABCDEFGHIJKLMNOPQRSTUVWXYZABCDEFGHIJKLMNOPQRSTUVWXYZ: 3.6787109375ms
test_js_string_sb.js:29 sb ABCDEFGHIJKLMNOPQRSTUVWXYZABCDEFGHIJKLMNOPQRSTUVWXYZ: 3.547119140625ms
test_js_string_sb.js:29 sb ABCDEFGHIJKLMNOPQRSTUVWXYZABCDEFGHIJKLMNOPQRSTUVWXYZ: 5.010009765625ms
test_js_string_sb.js:29 sb ABCDEFGHIJKLMNOPQRSTUVWXYZABCDEFGHIJKLMNOPQRSTUVWXYZ: 4.6337890625ms
test_js_string_sb.js:42 sb uncheckedABCDEFGHIJKLMNOPQRSTUVWXYZABCDEFGHIJKLMNOPQRSTUVWXYZ: 3.501708984375ms
test_js_string_sb.js:42 sb uncheckedABCDEFGHIJKLMNOPQRSTUVWXYZABCDEFGHIJKLMNOPQRSTUVWXYZ: 3.3837890625ms
test_js_string_sb.js:42 sb uncheckedABCDEFGHIJKLMNOPQRSTUVWXYZABCDEFGHIJKLMNOPQRSTUVWXYZ: 5.59814453125ms
test_js_string_sb.js:42 sb uncheckedABCDEFGHIJKLMNOPQRSTUVWXYZABCDEFGHIJKLMNOPQRSTUVWXYZ: 3.39990234375ms
test_js_string_sb.js:42 sb uncheckedABCDEFGHIJKLMNOPQRSTUVWXYZABCDEFGHIJKLMNOPQRSTUVWXYZ: 3.501220703125ms
test_js_string_sb.js:42 sb uncheckedABCDEFGHIJKLMNOPQRSTUVWXYZABCDEFGHIJKLMNOPQRSTUVWXYZ: 3.453857421875ms
test_js_string_sb.js:42 sb uncheckedABCDEFGHIJKLMNOPQRSTUVWXYZABCDEFGHIJKLMNOPQRSTUVWXYZ: 6.14697265625ms
test_js_string_sb.js:42 sb uncheckedABCDEFGHIJKLMNOPQRSTUVWXYZABCDEFGHIJKLMNOPQRSTUVWXYZ: 3.35107421875ms
test_js_string_sb.js:42 sb uncheckedABCDEFGHIJKLMNOPQRSTUVWXYZABCDEFGHIJKLMNOPQRSTUVWXYZ: 3.271240234375ms
test_js_string_sb.js:42 sb uncheckedABCDEFGHIJKLMNOPQRSTUVWXYZABCDEFGHIJKLMNOPQRSTUVWXYZ: 3.326904296875ms
test_js_string_sb.js:56 sb arrayABCDEFGHIJKLMNOPQRSTUVWXYZABCDEFGHIJKLMNOPQRSTUVWXYZ: 28.738037109375ms
test_js_string_sb.js:56 sb arrayABCDEFGHIJKLMNOPQRSTUVWXYZABCDEFGHIJKLMNOPQRSTUVWXYZ: 24.970947265625ms
test_js_string_sb.js:56 sb arrayABCDEFGHIJKLMNOPQRSTUVWXYZABCDEFGHIJKLMNOPQRSTUVWXYZ: 25.960205078125ms
test_js_string_sb.js:56 sb arrayABCDEFGHIJKLMNOPQRSTUVWXYZABCDEFGHIJKLMNOPQRSTUVWXYZ: 28.969970703125ms
test_js_string_sb.js:56 sb arrayABCDEFGHIJKLMNOPQRSTUVWXYZABCDEFGHIJKLMNOPQRSTUVWXYZ: 23.817138671875ms
test_js_string_sb.js:56 sb arrayABCDEFGHIJKLMNOPQRSTUVWXYZABCDEFGHIJKLMNOPQRSTUVWXYZ: 27.52001953125ms
test_js_string_sb.js:56 sb arrayABCDEFGHIJKLMNOPQRSTUVWXYZABCDEFGHIJKLMNOPQRSTUVWXYZ: 25.5087890625ms
test_js_string_sb.js:56 sb arrayABCDEFGHIJKLMNOPQRSTUVWXYZABCDEFGHIJKLMNOPQRSTUVWXYZ: 23.43310546875ms
test_js_string_sb.js:56 sb arrayABCDEFGHIJKLMNOPQRSTUVWXYZABCDEFGHIJKLMNOPQRSTUVWXYZ: 21.6640625ms
test_js_string_sb.js:56 sb arrayABCDEFGHIJKLMNOPQRSTUVWXYZABCDEFGHIJKLMNOPQRSTUVWXYZ: 22.9228515625ms
test_js_string_sb.js:70 sb unchecked arrayABCDEFGHIJKLMNOPQRSTUVWXYZABCDEFGHIJKLMNOPQRSTUVWXYZ: 23.286865234375ms
test_js_string_sb.js:70 sb unchecked arrayABCDEFGHIJKLMNOPQRSTUVWXYZABCDEFGHIJKLMNOPQRSTUVWXYZ: 21.957763671875ms
test_js_string_sb.js:70 sb unchecked arrayABCDEFGHIJKLMNOPQRSTUVWXYZABCDEFGHIJKLMNOPQRSTUVWXYZ: 22.81201171875ms
test_js_string_sb.js:70 sb unchecked arrayABCDEFGHIJKLMNOPQRSTUVWXYZABCDEFGHIJKLMNOPQRSTUVWXYZ: 22.35107421875ms
test_js_string_sb.js:70 sb unchecked arrayABCDEFGHIJKLMNOPQRSTUVWXYZABCDEFGHIJKLMNOPQRSTUVWXYZ: 21.88916015625ms
test_js_string_sb.js:70 sb unchecked arrayABCDEFGHIJKLMNOPQRSTUVWXYZABCDEFGHIJKLMNOPQRSTUVWXYZ: 22.23291015625ms
test_js_string_sb.js:70 sb unchecked arrayABCDEFGHIJKLMNOPQRSTUVWXYZABCDEFGHIJKLMNOPQRSTUVWXYZ: 21.9990234375ms
test_js_string_sb.js:70 sb unchecked arrayABCDEFGHIJKLMNOPQRSTUVWXYZABCDEFGHIJKLMNOPQRSTUVWXYZ: 21.821044921875ms
test_js_string_sb.js:70 sb unchecked arrayABCDEFGHIJKLMNOPQRSTUVWXYZABCDEFGHIJKLMNOPQRSTUVWXYZ: 22.808837890625ms
test_js_string_sb.js:70 sb unchecked arrayABCDEFGHIJKLMNOPQRSTUVWXYZABCDEFGHIJKLMNOPQRSTUVWXYZ: 21.89599609375ms
test_js_string_sb.js:29 sb あいうえおかきくけこさしすせそたちつてとなにぬねのはひふへほまみむめもやゆよらりるれろわをん: 5.014892578125ms
test_js_string_sb.js:29 sb あいうえおかきくけこさしすせそたちつてとなにぬねのはひふへほまみむめもやゆよらりるれろわをん: 11.01904296875ms
test_js_string_sb.js:29 sb あいうえおかきくけこさしすせそたちつてとなにぬねのはひふへほまみむめもやゆよらりるれろわをん: 15.76611328125ms
test_js_string_sb.js:29 sb あいうえおかきくけこさしすせそたちつてとなにぬねのはひふへほまみむめもやゆよらりるれろわをん: 99.471923828125ms
test_js_string_sb.js:29 sb あいうえおかきくけこさしすせそたちつてとなにぬねのはひふへほまみむめもやゆよらりるれろわをん: 5.095947265625ms
test_js_string_sb.js:29 sb あいうえおかきくけこさしすせそたちつてとなにぬねのはひふへほまみむめもやゆよらりるれろわをん: 5.31396484375ms
test_js_string_sb.js:29 sb あいうえおかきくけこさしすせそたちつてとなにぬねのはひふへほまみむめもやゆよらりるれろわをん: 4.85205078125ms
test_js_string_sb.js:29 sb あいうえおかきくけこさしすせそたちつてとなにぬねのはひふへほまみむめもやゆよらりるれろわをん: 5.0830078125ms
test_js_string_sb.js:29 sb あいうえおかきくけこさしすせそたちつてとなにぬねのはひふへほまみむめもやゆよらりるれろわをん: 5.165283203125ms
test_js_string_sb.js:29 sb あいうえおかきくけこさしすせそたちつてとなにぬねのはひふへほまみむめもやゆよらりるれろわをん: 5.281005859375ms
test_js_string_sb.js:42 sb uncheckedあいうえおかきくけこさしすせそたちつてとなにぬねのはひふへほまみむめもやゆよらりるれろわをん: 15.733154296875ms
test_js_string_sb.js:42 sb uncheckedあいうえおかきくけこさしすせそたちつてとなにぬねのはひふへほまみむめもやゆよらりるれろわをん: 92.01611328125ms
test_js_string_sb.js:42 sb uncheckedあいうえおかきくけこさしすせそたちつてとなにぬねのはひふへほまみむめもやゆよらりるれろわをん: 5.76904296875ms
test_js_string_sb.js:42 sb uncheckedあいうえおかきくけこさしすせそたちつてとなにぬねのはひふへほまみむめもやゆよらりるれろわをん: 5.051025390625ms
test_js_string_sb.js:42 sb uncheckedあいうえおかきくけこさしすせそたちつてとなにぬねのはひふへほまみむめもやゆよらりるれろわをん: 4.819091796875ms
test_js_string_sb.js:42 sb uncheckedあいうえおかきくけこさしすせそたちつてとなにぬねのはひふへほまみむめもやゆよらりるれろわをん: 5.5380859375ms
test_js_string_sb.js:42 sb uncheckedあいうえおかきくけこさしすせそたちつてとなにぬねのはひふへほまみむめもやゆよらりるれろわをん: 4.82470703125ms
test_js_string_sb.js:42 sb uncheckedあいうえおかきくけこさしすせそたちつてとなにぬねのはひふへほまみむめもやゆよらりるれろわをん: 4.931884765625ms
test_js_string_sb.js:42 sb uncheckedあいうえおかきくけこさしすせそたちつてとなにぬねのはひふへほまみむめもやゆよらりるれろわをん: 5.23681640625ms
test_js_string_sb.js:42 sb uncheckedあいうえおかきくけこさしすせそたちつてとなにぬねのはひふへほまみむめもやゆよらりるれろわをん: 4.9921875ms
test_js_string_sb.js:56 sb arrayあいうえおかきくけこさしすせそたちつてとなにぬねのはひふへほまみむめもやゆよらりるれろわをん: 37.68017578125ms
test_js_string_sb.js:56 sb arrayあいうえおかきくけこさしすせそたちつてとなにぬねのはひふへほまみむめもやゆよらりるれろわをん: 37.12109375ms
test_js_string_sb.js:56 sb arrayあいうえおかきくけこさしすせそたちつてとなにぬねのはひふへほまみむめもやゆよらりるれろわをん: 98.361083984375ms
test_js_string_sb.js:56 sb arrayあいうえおかきくけこさしすせそたちつてとなにぬねのはひふへほまみむめもやゆよらりるれろわをん: 26.691162109375ms
test_js_string_sb.js:56 sb arrayあいうえおかきくけこさしすせそたちつてとなにぬねのはひふへほまみむめもやゆよらりるれろわをん: 26.60107421875ms
test_js_string_sb.js:56 sb arrayあいうえおかきくけこさしすせそたちつてとなにぬねのはひふへほまみむめもやゆよらりるれろわをん: 26.549072265625ms
test_js_string_sb.js:56 sb arrayあいうえおかきくけこさしすせそたちつてとなにぬねのはひふへほまみむめもやゆよらりるれろわをん: 26.908203125ms
test_js_string_sb.js:56 sb arrayあいうえおかきくけこさしすせそたちつてとなにぬねのはひふへほまみむめもやゆよらりるれろわをん: 26.527099609375ms
test_js_string_sb.js:56 sb arrayあいうえおかきくけこさしすせそたちつてとなにぬねのはひふへほまみむめもやゆよらりるれろわをん: 27.198974609375ms
test_js_string_sb.js:56 sb arrayあいうえおかきくけこさしすせそたちつてとなにぬねのはひふへほまみむめもやゆよらりるれろわをん: 28.033935546875ms
test_js_string_sb.js:70 sb unchecked arrayあいうえおかきくけこさしすせそたちつてとなにぬねのはひふへほまみむめもやゆよらりるれろわをん: 37.7451171875ms
test_js_string_sb.js:70 sb unchecked arrayあいうえおかきくけこさしすせそたちつてとなにぬねのはひふへほまみむめもやゆよらりるれろわをん: 36.890869140625ms
test_js_string_sb.js:70 sb unchecked arrayあいうえおかきくけこさしすせそたちつてとなにぬねのはひふへほまみむめもやゆよらりるれろわをん: 89.23388671875ms
test_js_string_sb.js:70 sb unchecked arrayあいうえおかきくけこさしすせそたちつてとなにぬねのはひふへほまみむめもやゆよらりるれろわをん: 26.066162109375ms
test_js_string_sb.js:70 sb unchecked arrayあいうえおかきくけこさしすせそたちつてとなにぬねのはひふへほまみむめもやゆよらりるれろわをん: 27.084716796875ms
test_js_string_sb.js:70 sb unchecked arrayあいうえおかきくけこさしすせそたちつてとなにぬねのはひふへほまみむめもやゆよらりるれろわをん: 26.8408203125ms
test_js_string_sb.js:70 sb unchecked arrayあいうえおかきくけこさしすせそたちつてとなにぬねのはひふへほまみむめもやゆよらりるれろわをん: 26.947998046875ms
test_js_string_sb.js:70 sb unchecked arrayあいうえおかきくけこさしすせそたちつてとなにぬねのはひふへほまみむめもやゆよらりるれろわをん: 26.693115234375ms
test_js_string_sb.js:70 sb unchecked arrayあいうえおかきくけこさしすせそたちつてとなにぬねのはひふへほまみむめもやゆよらりるれろわをん: 26.18310546875ms
test_js_string_sb.js:70 sb unchecked arrayあいうえおかきくけこさしすせそたちつてとなにぬねのはひふへほまみむめもやゆよらりるれろわをん: 27.1220703125ms
test_js_string_sb.js:29 sb 😃😁😂: 0.6630859375ms
test_js_string_sb.js:29 sb 😃😁😂: 0.67578125ms
test_js_string_sb.js:29 sb 😃😁😂: 0.836181640625ms
test_js_string_sb.js:29 sb 😃😁😂: 0.6689453125ms
test_js_string_sb.js:29 sb 😃😁😂: 0.68310546875ms
test_js_string_sb.js:29 sb 😃😁😂: 0.6630859375ms
test_js_string_sb.js:29 sb 😃😁😂: 0.6767578125ms
test_js_string_sb.js:29 sb 😃😁😂: 0.6689453125ms
test_js_string_sb.js:29 sb 😃😁😂: 0.6669921875ms
test_js_string_sb.js:29 sb 😃😁😂: 0.84716796875ms
test_js_string_sb.js:42 sb unchecked😃😁😂: 0.7099609375ms
test_js_string_sb.js:42 sb unchecked😃😁😂: 0.7197265625ms
test_js_string_sb.js:42 sb unchecked😃😁😂: 0.7109375ms
test_js_string_sb.js:42 sb unchecked😃😁😂: 1.180908203125ms
test_js_string_sb.js:42 sb unchecked😃😁😂: 0.770263671875ms
test_js_string_sb.js:42 sb unchecked😃😁😂: 0.77197265625ms
test_js_string_sb.js:42 sb unchecked😃😁😂: 0.9580078125ms
2test_js_string_sb.js:42 sb unchecked😃😁😂: 0.716064453125ms
test_js_string_sb.js:42 sb unchecked😃😁😂: 0.72998046875ms
test_js_string_sb.js:56 sb array😃😁😂: 2.641845703125ms
test_js_string_sb.js:56 sb array😃😁😂: 2.432861328125ms
test_js_string_sb.js:56 sb array😃😁😂: 2.602783203125ms
test_js_string_sb.js:56 sb array😃😁😂: 2.55517578125ms
test_js_string_sb.js:56 sb array😃😁😂: 3.345947265625ms
test_js_string_sb.js:56 sb array😃😁😂: 2.482177734375ms
test_js_string_sb.js:56 sb array😃😁😂: 2.6708984375ms
test_js_string_sb.js:56 sb array😃😁😂: 2.492919921875ms
test_js_string_sb.js:56 sb array😃😁😂: 2.64892578125ms
test_js_string_sb.js:56 sb array😃😁😂: 2.77685546875ms
test_js_string_sb.js:70 sb unchecked array😃😁😂: 3.023193359375ms
test_js_string_sb.js:70 sb unchecked array😃😁😂: 2.490966796875ms
test_js_string_sb.js:70 sb unchecked array😃😁😂: 2.69482421875ms
test_js_string_sb.js:70 sb unchecked array😃😁😂: 2.503662109375ms
test_js_string_sb.js:70 sb unchecked array😃😁😂: 2.76806640625ms
test_js_string_sb.js:70 sb unchecked array😃😁😂: 2.6328125ms
test_js_string_sb.js:70 sb unchecked array😃😁😂: 3.02685546875ms
test_js_string_sb.js:70 sb unchecked array😃😁😂: 2.468017578125ms
test_js_string_sb.js:70 sb unchecked array😃😁😂: 2.66015625ms
test_js_string_sb.js:70 sb unchecked array😃😁😂: 2.497802734375ms
test_js_string_sb.js:29 sb 😃😁😂😃😁😂😃😁😂😃😁😂😃😁😂😃😁😂😃😁😂😃😁😂😃😁😂😃😁😂😃😁😂😃😁😂😃😁😂😃😁😂😃😁😂😃😁😂: 6.462158203125ms
test_js_string_sb.js:29 sb 😃😁😂😃😁😂😃😁😂😃😁😂😃😁😂😃😁😂😃😁😂😃😁😂😃😁😂😃😁😂😃😁😂😃😁😂😃😁😂😃😁😂😃😁😂😃😁😂: 5.998046875ms
test_js_string_sb.js:29 sb 😃😁😂😃😁😂😃😁😂😃😁😂😃😁😂😃😁😂😃😁😂😃😁😂😃😁😂😃😁😂😃😁😂😃😁😂😃😁😂😃😁😂😃😁😂😃😁😂: 5.985107421875ms
test_js_string_sb.js:29 sb 😃😁😂😃😁😂😃😁😂😃😁😂😃😁😂😃😁😂😃😁😂😃😁😂😃😁😂😃😁😂😃😁😂😃😁😂😃😁😂😃😁😂😃😁😂😃😁😂: 6.12109375ms
test_js_string_sb.js:29 sb 😃😁😂😃😁😂😃😁😂😃😁😂😃😁😂😃😁😂😃😁😂😃😁😂😃😁😂😃😁😂😃😁😂😃😁😂😃😁😂😃😁😂😃😁😂😃😁😂: 5.94580078125ms
test_js_string_sb.js:29 sb 😃😁😂😃😁😂😃😁😂😃😁😂😃😁😂😃😁😂😃😁😂😃😁😂😃😁😂😃😁😂😃😁😂😃😁😂😃😁😂😃😁😂😃😁😂😃😁😂: 5.9130859375ms
test_js_string_sb.js:29 sb 😃😁😂😃😁😂😃😁😂😃😁😂😃😁😂😃😁😂😃😁😂😃😁😂😃😁😂😃😁😂😃😁😂😃😁😂😃😁😂😃😁😂😃😁😂😃😁😂: 6.217041015625ms
test_js_string_sb.js:29 sb 😃😁😂😃😁😂😃😁😂😃😁😂😃😁😂😃😁😂😃😁😂😃😁😂😃😁😂😃😁😂😃😁😂😃😁😂😃😁😂😃😁😂😃😁😂😃😁😂: 5.970947265625ms
test_js_string_sb.js:29 sb 😃😁😂😃😁😂😃😁😂😃😁😂😃😁😂😃😁😂😃😁😂😃😁😂😃😁😂😃😁😂😃😁😂😃😁😂😃😁😂😃😁😂😃😁😂😃😁😂: 5.929931640625ms
test_js_string_sb.js:29 sb 😃😁😂😃😁😂😃😁😂😃😁😂😃😁😂😃😁😂😃😁😂😃😁😂😃😁😂😃😁😂😃😁😂😃😁😂😃😁😂😃😁😂😃😁😂😃😁😂: 6.223876953125ms
test_js_string_sb.js:42 sb unchecked😃😁😂😃😁😂😃😁😂😃😁😂😃😁😂😃😁😂😃😁😂😃😁😂😃😁😂😃😁😂😃😁😂😃😁😂😃😁😂😃😁😂😃😁😂😃😁😂: 6.031005859375ms
test_js_string_sb.js:42 sb unchecked😃😁😂😃😁😂😃😁😂😃😁😂😃😁😂😃😁😂😃😁😂😃😁😂😃😁😂😃😁😂😃😁😂😃😁😂😃😁😂😃😁😂😃😁😂😃😁😂: 6.568115234375ms
test_js_string_sb.js:42 sb unchecked😃😁😂😃😁😂😃😁😂😃😁😂😃😁😂😃😁😂😃😁😂😃😁😂😃😁😂😃😁😂😃😁😂😃😁😂😃😁😂😃😁😂😃😁😂😃😁😂: 5.970947265625ms
test_js_string_sb.js:42 sb unchecked😃😁😂😃😁😂😃😁😂😃😁😂😃😁😂😃😁😂😃😁😂😃😁😂😃😁😂😃😁😂😃😁😂😃😁😂😃😁😂😃😁😂😃😁😂😃😁😂: 5.976806640625ms
test_js_string_sb.js:42 sb unchecked😃😁😂😃😁😂😃😁😂😃😁😂😃😁😂😃😁😂😃😁😂😃😁😂😃😁😂😃😁😂😃😁😂😃😁😂😃😁😂😃😁😂😃😁😂😃😁😂: 6.211181640625ms
test_js_string_sb.js:42 sb unchecked😃😁😂😃😁😂😃😁😂😃😁😂😃😁😂😃😁😂😃😁😂😃😁😂😃😁😂😃😁😂😃😁😂😃😁😂😃😁😂😃😁😂😃😁😂😃😁😂: 6.286376953125ms
test_js_string_sb.js:42 sb unchecked😃😁😂😃😁😂😃😁😂😃😁😂😃😁😂😃😁😂😃😁😂😃😁😂😃😁😂😃😁😂😃😁😂😃😁😂😃😁😂😃😁😂😃😁😂😃😁😂: 6.00390625ms
test_js_string_sb.js:42 sb unchecked😃😁😂😃😁😂😃😁😂😃😁😂😃😁😂😃😁😂😃😁😂😃😁😂😃😁😂😃😁😂😃😁😂😃😁😂😃😁😂😃😁😂😃😁😂😃😁😂: 6.39697265625ms
test_js_string_sb.js:42 sb unchecked😃😁😂😃😁😂😃😁😂😃😁😂😃😁😂😃😁😂😃😁😂😃😁😂😃😁😂😃😁😂😃😁😂😃😁😂😃😁😂😃😁😂😃😁😂😃😁😂: 5.978759765625ms
test_js_string_sb.js:42 sb unchecked😃😁😂😃😁😂😃😁😂😃😁😂😃😁😂😃😁😂😃😁😂😃😁😂😃😁😂😃😁😂😃😁😂😃😁😂😃😁😂😃😁😂😃😁😂😃😁😂: 6.10302734375ms
test_js_string_sb.js:56 sb array😃😁😂😃😁😂😃😁😂😃😁😂😃😁😂😃😁😂😃😁😂😃😁😂😃😁😂😃😁😂😃😁😂😃😁😂😃😁😂😃😁😂😃😁😂😃😁😂: 27.158935546875ms
test_js_string_sb.js:56 sb array😃😁😂😃😁😂😃😁😂😃😁😂😃😁😂😃😁😂😃😁😂😃😁😂😃😁😂😃😁😂😃😁😂😃😁😂😃😁😂😃😁😂😃😁😂😃😁😂: 28.48583984375ms
test_js_string_sb.js:56 sb array😃😁😂😃😁😂😃😁😂😃😁😂😃😁😂😃😁😂😃😁😂😃😁😂😃😁😂😃😁😂😃😁😂😃😁😂😃😁😂😃😁😂😃😁😂😃😁😂: 28.487060546875ms
test_js_string_sb.js:56 sb array😃😁😂😃😁😂😃😁😂😃😁😂😃😁😂😃😁😂😃😁😂😃😁😂😃😁😂😃😁😂😃😁😂😃😁😂😃😁😂😃😁😂😃😁😂😃😁😂: 27.3740234375ms
test_js_string_sb.js:56 sb array😃😁😂😃😁😂😃😁😂😃😁😂😃😁😂😃😁😂😃😁😂😃😁😂😃😁😂😃😁😂😃😁😂😃😁😂😃😁😂😃😁😂😃😁😂😃😁😂: 27.97705078125ms
test_js_string_sb.js:56 sb array😃😁😂😃😁😂😃😁😂😃😁😂😃😁😂😃😁😂😃😁😂😃😁😂😃😁😂😃😁😂😃😁😂😃😁😂😃😁😂😃😁😂😃😁😂😃😁😂: 28.070068359375ms
test_js_string_sb.js:56 sb array😃😁😂😃😁😂😃😁😂😃😁😂😃😁😂😃😁😂😃😁😂😃😁😂😃😁😂😃😁😂😃😁😂😃😁😂😃😁😂😃😁😂😃😁😂😃😁😂: 27.192138671875ms
test_js_string_sb.js:56 sb array😃😁😂😃😁😂😃😁😂😃😁😂😃😁😂😃😁😂😃😁😂😃😁😂😃😁😂😃😁😂😃😁😂😃😁😂😃😁😂😃😁😂😃😁😂😃😁😂: 27.739013671875ms
test_js_string_sb.js:56 sb array😃😁😂😃😁😂😃😁😂😃😁😂😃😁😂😃😁😂😃😁😂😃😁😂😃😁😂😃😁😂😃😁😂😃😁😂😃😁😂😃😁😂😃😁😂😃😁😂: 27.9169921875ms
test_js_string_sb.js:56 sb array😃😁😂😃😁😂😃😁😂😃😁😂😃😁😂😃😁😂😃😁😂😃😁😂😃😁😂😃😁😂😃😁😂😃😁😂😃😁😂😃😁😂😃😁😂😃😁😂: 26.94384765625ms
test_js_string_sb.js:70 sb unchecked array😃😁😂😃😁😂😃😁😂😃😁😂😃😁😂😃😁😂😃😁😂😃😁😂😃😁😂😃😁😂😃😁😂😃😁😂😃😁😂😃😁😂😃😁😂😃😁😂: 28.062255859375ms
test_js_string_sb.js:70 sb unchecked array😃😁😂😃😁😂😃😁😂😃😁😂😃😁😂😃😁😂😃😁😂😃😁😂😃😁😂😃😁😂😃😁😂😃😁😂😃😁😂😃😁😂😃😁😂😃😁😂: 27.619873046875ms
test_js_string_sb.js:70 sb unchecked array😃😁😂😃😁😂😃😁😂😃😁😂😃😁😂😃😁😂😃😁😂😃😁😂😃😁😂😃😁😂😃😁😂😃😁😂😃😁😂😃😁😂😃😁😂😃😁😂: 27.366943359375ms
test_js_string_sb.js:70 sb unchecked array😃😁😂😃😁😂😃😁😂😃😁😂😃😁😂😃😁😂😃😁😂😃😁😂😃😁😂😃😁😂😃😁😂😃😁😂😃😁😂😃😁😂😃😁😂😃😁😂: 27.68896484375ms
test_js_string_sb.js:70 sb unchecked array😃😁😂😃😁😂😃😁😂😃😁😂😃😁😂😃😁😂😃😁😂😃😁😂😃😁😂😃😁😂😃😁😂😃😁😂😃😁😂😃😁😂😃😁😂😃😁😂: 27.702880859375ms
test_js_string_sb.js:70 sb unchecked array😃😁😂😃😁😂😃😁😂😃😁😂😃😁😂😃😁😂😃😁😂😃😁😂😃😁😂😃😁😂😃😁😂😃😁😂😃😁😂😃😁😂😃😁😂😃😁😂: 27.3818359375ms
test_js_string_sb.js:70 sb unchecked array😃😁😂😃😁😂😃😁😂😃😁😂😃😁😂😃😁😂😃😁😂😃😁😂😃😁😂😃😁😂😃😁😂😃😁😂😃😁😂😃😁😂😃😁😂😃😁😂: 27.72802734375ms
test_js_string_sb.js:70 sb unchecked array😃😁😂😃😁😂😃😁😂😃😁😂😃😁😂😃😁😂😃😁😂😃😁😂😃😁😂😃😁😂😃😁😂😃😁😂😃😁😂😃😁😂😃😁😂😃😁😂: 27.698974609375ms
test_js_string_sb.js:70 sb unchecked array😃😁😂😃😁😂😃😁😂😃😁😂😃😁😂😃😁😂😃😁😂😃😁😂😃😁😂😃😁😂😃😁😂😃😁😂😃😁😂😃😁😂😃😁😂😃😁😂: 27.112060546875ms
test_js_string_sb.js:70 sb unchecked array😃😁😂😃😁😂😃😁😂😃😁😂😃😁😂😃😁😂😃😁😂😃😁😂😃😁😂😃😁😂😃😁😂😃😁😂😃😁😂😃😁😂😃😁😂😃😁😂: 28.082763671875ms
test_js_string_sb.js:29 sb ABCDE: 2.31689453125ms
test_js_string_sb.js:29 sb ABCDE: 2.135986328125ms
test_js_string_sb.js:29 sb ABCDE: 2.505126953125ms
test_js_string_sb.js:29 sb ABCDE: 3.80517578125ms
test_js_string_sb.js:29 sb ABCDE: 2.234130859375ms
test_js_string_sb.js:29 sb ABCDE: 2.134033203125ms
test_js_string_sb.js:29 sb ABCDE: 2.133056640625ms
test_js_string_sb.js:29 sb ABCDE: 2.31396484375ms
test_js_string_sb.js:29 sb ABCDE: 2.215087890625ms
test_js_string_sb.js:29 sb ABCDE: 2.22021484375ms
test_js_string_sb.js:42 sb uncheckedABCDE: 2.687744140625ms
test_js_string_sb.js:42 sb uncheckedABCDE: 2.224853515625ms
test_js_string_sb.js:42 sb uncheckedABCDE: 144.8662109375ms
test_js_string_sb.js:42 sb uncheckedABCDE: 0.64306640625ms
test_js_string_sb.js:42 sb uncheckedABCDE: 0.63720703125ms
test_js_string_sb.js:42 sb uncheckedABCDE: 0.606201171875ms
test_js_string_sb.js:42 sb uncheckedABCDE: 0.630126953125ms
test_js_string_sb.js:42 sb uncheckedABCDE: 0.572998046875ms
test_js_string_sb.js:42 sb uncheckedABCDE: 0.555908203125ms
test_js_string_sb.js:42 sb uncheckedABCDE: 0.77197265625ms
test_js_string_sb.js:56 sb arrayABCDE: 3.26123046875ms
test_js_string_sb.js:56 sb arrayABCDE: 3.15087890625ms
test_js_string_sb.js:56 sb arrayABCDE: 2.97314453125ms
test_js_string_sb.js:56 sb arrayABCDE: 4.290771484375ms
test_js_string_sb.js:56 sb arrayABCDE: 3.201904296875ms
test_js_string_sb.js:56 sb arrayABCDE: 2.97314453125ms
test_js_string_sb.js:56 sb arrayABCDE: 3.141845703125ms
test_js_string_sb.js:56 sb arrayABCDE: 2.970703125ms
test_js_string_sb.js:56 sb arrayABCDE: 3.89501953125ms
test_js_string_sb.js:56 sb arrayABCDE: 3.17578125ms
test_js_string_sb.js:70 sb unchecked arrayABCDE: 2.919921875ms
test_js_string_sb.js:70 sb unchecked arrayABCDE: 3.09130859375ms
test_js_string_sb.js:70 sb unchecked arrayABCDE: 3.0849609375ms
test_js_string_sb.js:70 sb unchecked arrayABCDE: 3.828125ms
test_js_string_sb.js:70 sb unchecked arrayABCDE: 3.135009765625ms
test_js_string_sb.js:70 sb unchecked arrayABCDE: 3.08203125ms
test_js_string_sb.js:70 sb unchecked arrayABCDE: 2.904052734375ms
test_js_string_sb.js:70 sb unchecked arrayABCDE: 3.0751953125ms
test_js_string_sb.js:70 sb unchecked arrayABCDE: 3.47509765625ms
test_js_string_sb.js:70 sb unchecked arrayABCDE: 3.119873046875ms
test_js_string_sb.js:29 sb あああああ: 0.835693359375ms
test_js_string_sb.js:29 sb あああああ: 1.007080078125ms
test_js_string_sb.js:29 sb あああああ: 0.837158203125ms
test_js_string_sb.js:29 sb あああああ: 0.830810546875ms
test_js_string_sb.js:29 sb あああああ: 0.8330078125ms
test_js_string_sb.js:29 sb あああああ: 0.8271484375ms
test_js_string_sb.js:29 sb あああああ: 1.001220703125ms
test_js_string_sb.js:29 sb あああああ: 0.824951171875ms
test_js_string_sb.js:29 sb あああああ: 0.846923828125ms
test_js_string_sb.js:29 sb あああああ: 1.190673828125ms
test_js_string_sb.js:42 sb uncheckedあああああ: 0.862060546875ms
test_js_string_sb.js:42 sb uncheckedあああああ: 1.431884765625ms
test_js_string_sb.js:42 sb uncheckedあああああ: 0.998046875ms
test_js_string_sb.js:42 sb uncheckedあああああ: 0.85302734375ms
test_js_string_sb.js:42 sb uncheckedあああああ: 0.837158203125ms
test_js_string_sb.js:42 sb uncheckedあああああ: 0.837890625ms
test_js_string_sb.js:42 sb uncheckedあああああ: 1.037109375ms
test_js_string_sb.js:42 sb uncheckedあああああ: 0.837890625ms
test_js_string_sb.js:42 sb uncheckedあああああ: 0.85302734375ms
test_js_string_sb.js:42 sb uncheckedあああああ: 0.844970703125ms
test_js_string_sb.js:56 sb arrayあああああ: 4.03125ms
test_js_string_sb.js:56 sb arrayあああああ: 4.366943359375ms
test_js_string_sb.js:56 sb arrayあああああ: 4.286865234375ms
test_js_string_sb.js:56 sb arrayあああああ: 3.99169921875ms
test_js_string_sb.js:56 sb arrayあああああ: 4.23583984375ms
test_js_string_sb.js:56 sb arrayあああああ: 4.669189453125ms
test_js_string_sb.js:56 sb arrayあああああ: 4.205078125ms
test_js_string_sb.js:56 sb arrayあああああ: 4.027099609375ms
test_js_string_sb.js:56 sb arrayあああああ: 4.095947265625ms
test_js_string_sb.js:56 sb arrayあああああ: 4.41015625ms
test_js_string_sb.js:70 sb unchecked arrayあああああ: 4.0341796875ms
test_js_string_sb.js:70 sb unchecked arrayあああああ: 4.10693359375ms
test_js_string_sb.js:70 sb unchecked arrayあああああ: 4.032958984375ms
test_js_string_sb.js:70 sb unchecked arrayあああああ: 4.281982421875ms
test_js_string_sb.js:70 sb unchecked arrayあああああ: 4.006103515625ms
test_js_string_sb.js:70 sb unchecked arrayあああああ: 4.076904296875ms
test_js_string_sb.js:70 sb unchecked arrayあああああ: 3.988037109375ms
test_js_string_sb.js:70 sb unchecked arrayあああああ: 4.4228515625ms
test_js_string_sb.js:70 sb unchecked arrayあああああ: 4.01904296875ms
test_js_string_sb.js:70 sb unchecked arrayあああああ: 4.26513671875ms
test_js_string_sb.js:29 sb ABCDEFGHIJKLMNOPQRSTUVWXYZABCDEFGHIJKLMNOPQRSTUVWXYZ: 3.363037109375ms
test_js_string_sb.js:29 sb ABCDEFGHIJKLMNOPQRSTUVWXYZABCDEFGHIJKLMNOPQRSTUVWXYZ: 3.5810546875ms
test_js_string_sb.js:29 sb ABCDEFGHIJKLMNOPQRSTUVWXYZABCDEFGHIJKLMNOPQRSTUVWXYZ: 3.363037109375ms
test_js_string_sb.js:29 sb ABCDEFGHIJKLMNOPQRSTUVWXYZABCDEFGHIJKLMNOPQRSTUVWXYZ: 3.393798828125ms
test_js_string_sb.js:29 sb ABCDEFGHIJKLMNOPQRSTUVWXYZABCDEFGHIJKLMNOPQRSTUVWXYZ: 3.2880859375ms
test_js_string_sb.js:29 sb ABCDEFGHIJKLMNOPQRSTUVWXYZABCDEFGHIJKLMNOPQRSTUVWXYZ: 3.34912109375ms
test_js_string_sb.js:29 sb ABCDEFGHIJKLMNOPQRSTUVWXYZABCDEFGHIJKLMNOPQRSTUVWXYZ: 3.546142578125ms
test_js_string_sb.js:29 sb ABCDEFGHIJKLMNOPQRSTUVWXYZABCDEFGHIJKLMNOPQRSTUVWXYZ: 3.428955078125ms
test_js_string_sb.js:29 sb ABCDEFGHIJKLMNOPQRSTUVWXYZABCDEFGHIJKLMNOPQRSTUVWXYZ: 3.462890625ms
test_js_string_sb.js:29 sb ABCDEFGHIJKLMNOPQRSTUVWXYZABCDEFGHIJKLMNOPQRSTUVWXYZ: 3.27587890625ms
test_js_string_sb.js:42 sb uncheckedABCDEFGHIJKLMNOPQRSTUVWXYZABCDEFGHIJKLMNOPQRSTUVWXYZ: 3.39404296875ms
test_js_string_sb.js:42 sb uncheckedABCDEFGHIJKLMNOPQRSTUVWXYZABCDEFGHIJKLMNOPQRSTUVWXYZ: 3.91015625ms
test_js_string_sb.js:42 sb uncheckedABCDEFGHIJKLMNOPQRSTUVWXYZABCDEFGHIJKLMNOPQRSTUVWXYZ: 3.324951171875ms
test_js_string_sb.js:42 sb uncheckedABCDEFGHIJKLMNOPQRSTUVWXYZABCDEFGHIJKLMNOPQRSTUVWXYZ: 3.278076171875ms
test_js_string_sb.js:42 sb uncheckedABCDEFGHIJKLMNOPQRSTUVWXYZABCDEFGHIJKLMNOPQRSTUVWXYZ: 3.485107421875ms
test_js_string_sb.js:42 sb uncheckedABCDEFGHIJKLMNOPQRSTUVWXYZABCDEFGHIJKLMNOPQRSTUVWXYZ: 3.406005859375ms
test_js_string_sb.js:42 sb uncheckedABCDEFGHIJKLMNOPQRSTUVWXYZABCDEFGHIJKLMNOPQRSTUVWXYZ: 3.633056640625ms
test_js_string_sb.js:42 sb uncheckedABCDEFGHIJKLMNOPQRSTUVWXYZABCDEFGHIJKLMNOPQRSTUVWXYZ: 3.274169921875ms
test_js_string_sb.js:42 sb uncheckedABCDEFGHIJKLMNOPQRSTUVWXYZABCDEFGHIJKLMNOPQRSTUVWXYZ: 3.2568359375ms
test_js_string_sb.js:42 sb uncheckedABCDEFGHIJKLMNOPQRSTUVWXYZABCDEFGHIJKLMNOPQRSTUVWXYZ: 3.255126953125ms
test_js_string_sb.js:56 sb arrayABCDEFGHIJKLMNOPQRSTUVWXYZABCDEFGHIJKLMNOPQRSTUVWXYZ: 23.02392578125ms
test_js_string_sb.js:56 sb arrayABCDEFGHIJKLMNOPQRSTUVWXYZABCDEFGHIJKLMNOPQRSTUVWXYZ: 22.10400390625ms
test_js_string_sb.js:56 sb arrayABCDEFGHIJKLMNOPQRSTUVWXYZABCDEFGHIJKLMNOPQRSTUVWXYZ: 22.6572265625ms
test_js_string_sb.js:56 sb arrayABCDEFGHIJKLMNOPQRSTUVWXYZABCDEFGHIJKLMNOPQRSTUVWXYZ: 22.93896484375ms
test_js_string_sb.js:56 sb arrayABCDEFGHIJKLMNOPQRSTUVWXYZABCDEFGHIJKLMNOPQRSTUVWXYZ: 21.705078125ms
test_js_string_sb.js:56 sb arrayABCDEFGHIJKLMNOPQRSTUVWXYZABCDEFGHIJKLMNOPQRSTUVWXYZ: 22.264892578125ms
test_js_string_sb.js:56 sb arrayABCDEFGHIJKLMNOPQRSTUVWXYZABCDEFGHIJKLMNOPQRSTUVWXYZ: 22.30224609375ms
test_js_string_sb.js:56 sb arrayABCDEFGHIJKLMNOPQRSTUVWXYZABCDEFGHIJKLMNOPQRSTUVWXYZ: 22.93212890625ms
test_js_string_sb.js:56 sb arrayABCDEFGHIJKLMNOPQRSTUVWXYZABCDEFGHIJKLMNOPQRSTUVWXYZ: 22.659912109375ms
test_js_string_sb.js:56 sb arrayABCDEFGHIJKLMNOPQRSTUVWXYZABCDEFGHIJKLMNOPQRSTUVWXYZ: 22.240966796875ms
test_js_string_sb.js:70 sb unchecked arrayABCDEFGHIJKLMNOPQRSTUVWXYZABCDEFGHIJKLMNOPQRSTUVWXYZ: 23.13671875ms
test_js_string_sb.js:70 sb unchecked arrayABCDEFGHIJKLMNOPQRSTUVWXYZABCDEFGHIJKLMNOPQRSTUVWXYZ: 22.9931640625ms
test_js_string_sb.js:70 sb unchecked arrayABCDEFGHIJKLMNOPQRSTUVWXYZABCDEFGHIJKLMNOPQRSTUVWXYZ: 21.725830078125ms
test_js_string_sb.js:70 sb unchecked arrayABCDEFGHIJKLMNOPQRSTUVWXYZABCDEFGHIJKLMNOPQRSTUVWXYZ: 21.97509765625ms
test_js_string_sb.js:70 sb unchecked arrayABCDEFGHIJKLMNOPQRSTUVWXYZABCDEFGHIJKLMNOPQRSTUVWXYZ: 22.304931640625ms
test_js_string_sb.js:70 sb unchecked arrayABCDEFGHIJKLMNOPQRSTUVWXYZABCDEFGHIJKLMNOPQRSTUVWXYZ: 22.771728515625ms
test_js_string_sb.js:70 sb unchecked arrayABCDEFGHIJKLMNOPQRSTUVWXYZABCDEFGHIJKLMNOPQRSTUVWXYZ: 22.280029296875ms
test_js_string_sb.js:70 sb unchecked arrayABCDEFGHIJKLMNOPQRSTUVWXYZABCDEFGHIJKLMNOPQRSTUVWXYZ: 22.551025390625ms
test_js_string_sb.js:70 sb unchecked arrayABCDEFGHIJKLMNOPQRSTUVWXYZABCDEFGHIJKLMNOPQRSTUVWXYZ: 21.6806640625ms
test_js_string_sb.js:70 sb unchecked arrayABCDEFGHIJKLMNOPQRSTUVWXYZABCDEFGHIJKLMNOPQRSTUVWXYZ: 23.3720703125ms
test_js_string_sb.js:29 sb あいうえおかきくけこさしすせそたちつてとなにぬねのはひふへほまみむめもやゆよらりるれろわをん: 5.067138671875ms
test_js_string_sb.js:29 sb あいうえおかきくけこさしすせそたちつてとなにぬねのはひふへほまみむめもやゆよらりるれろわをん: 6ms
test_js_string_sb.js:29 sb あいうえおかきくけこさしすせそたちつてとなにぬねのはひふへほまみむめもやゆよらりるれろわをん: 5.64599609375ms
test_js_string_sb.js:29 sb あいうえおかきくけこさしすせそたちつてとなにぬねのはひふへほまみむめもやゆよらりるれろわをん: 6.18310546875ms
test_js_string_sb.js:29 sb あいうえおかきくけこさしすせそたちつてとなにぬねのはひふへほまみむめもやゆよらりるれろわをん: 4.8857421875ms
test_js_string_sb.js:29 sb あいうえおかきくけこさしすせそたちつてとなにぬねのはひふへほまみむめもやゆよらりるれろわをん: 5.2109375ms
test_js_string_sb.js:29 sb あいうえおかきくけこさしすせそたちつてとなにぬねのはひふへほまみむめもやゆよらりるれろわをん: 5.332275390625ms
test_js_string_sb.js:29 sb あいうえおかきくけこさしすせそたちつてとなにぬねのはひふへほまみむめもやゆよらりるれろわをん: 5.01806640625ms
test_js_string_sb.js:29 sb あいうえおかきくけこさしすせそたちつてとなにぬねのはひふへほまみむめもやゆよらりるれろわをん: 4.89501953125ms
test_js_string_sb.js:29 sb あいうえおかきくけこさしすせそたちつてとなにぬねのはひふへほまみむめもやゆよらりるれろわをん: 5.4892578125ms
test_js_string_sb.js:42 sb uncheckedあいうえおかきくけこさしすせそたちつてとなにぬねのはひふへほまみむめもやゆよらりるれろわをん: 4.97314453125ms
test_js_string_sb.js:42 sb uncheckedあいうえおかきくけこさしすせそたちつてとなにぬねのはひふへほまみむめもやゆよらりるれろわをん: 5.4150390625ms
test_js_string_sb.js:42 sb uncheckedあいうえおかきくけこさしすせそたちつてとなにぬねのはひふへほまみむめもやゆよらりるれろわをん: 5.450927734375ms
test_js_string_sb.js:42 sb uncheckedあいうえおかきくけこさしすせそたちつてとなにぬねのはひふへほまみむめもやゆよらりるれろわをん: 5.10009765625ms
test_js_string_sb.js:42 sb uncheckedあいうえおかきくけこさしすせそたちつてとなにぬねのはひふへほまみむめもやゆよらりるれろわをん: 4.939208984375ms
test_js_string_sb.js:42 sb uncheckedあいうえおかきくけこさしすせそたちつてとなにぬねのはひふへほまみむめもやゆよらりるれろわをん: 5.60400390625ms
test_js_string_sb.js:42 sb uncheckedあいうえおかきくけこさしすせそたちつてとなにぬねのはひふへほまみむめもやゆよらりるれろわをん: 4.97216796875ms
test_js_string_sb.js:42 sb uncheckedあいうえおかきくけこさしすせそたちつてとなにぬねのはひふへほまみむめもやゆよらりるれろわをん: 5.059814453125ms
test_js_string_sb.js:42 sb uncheckedあいうえおかきくけこさしすせそたちつてとなにぬねのはひふへほまみむめもやゆよらりるれろわをん: 5.822998046875ms
test_js_string_sb.js:42 sb uncheckedあいうえおかきくけこさしすせそたちつてとなにぬねのはひふへほまみむめもやゆよらりるれろわをん: 5.125ms
test_js_string_sb.js:56 sb arrayあいうえおかきくけこさしすせそたちつてとなにぬねのはひふへほまみむめもやゆよらりるれろわをん: 27.85302734375ms
test_js_string_sb.js:56 sb arrayあいうえおかきくけこさしすせそたちつてとなにぬねのはひふへほまみむめもやゆよらりるれろわをん: 27.218017578125ms
test_js_string_sb.js:56 sb arrayあいうえおかきくけこさしすせそたちつてとなにぬねのはひふへほまみむめもやゆよらりるれろわをん: 26.38720703125ms
test_js_string_sb.js:56 sb arrayあいうえおかきくけこさしすせそたちつてとなにぬねのはひふへほまみむめもやゆよらりるれろわをん: 28.162109375ms
test_js_string_sb.js:56 sb arrayあいうえおかきくけこさしすせそたちつてとなにぬねのはひふへほまみむめもやゆよらりるれろわをん: 26.694091796875ms
test_js_string_sb.js:56 sb arrayあいうえおかきくけこさしすせそたちつてとなにぬねのはひふへほまみむめもやゆよらりるれろわをん: 27.051025390625ms
test_js_string_sb.js:56 sb arrayあいうえおかきくけこさしすせそたちつてとなにぬねのはひふへほまみむめもやゆよらりるれろわをん: 28.755126953125ms
test_js_string_sb.js:56 sb arrayあいうえおかきくけこさしすせそたちつてとなにぬねのはひふへほまみむめもやゆよらりるれろわをん: 26.27001953125ms
test_js_string_sb.js:56 sb arrayあいうえおかきくけこさしすせそたちつてとなにぬねのはひふへほまみむめもやゆよらりるれろわをん: 27.569091796875ms
test_js_string_sb.js:56 sb arrayあいうえおかきくけこさしすせそたちつてとなにぬねのはひふへほまみむめもやゆよらりるれろわをん: 26.102294921875ms
test_js_string_sb.js:70 sb unchecked arrayあいうえおかきくけこさしすせそたちつてとなにぬねのはひふへほまみむめもやゆよらりるれろわをん: 27.391845703125ms
test_js_string_sb.js:70 sb unchecked arrayあいうえおかきくけこさしすせそたちつてとなにぬねのはひふへほまみむめもやゆよらりるれろわをん: 26.892822265625ms
test_js_string_sb.js:70 sb unchecked arrayあいうえおかきくけこさしすせそたちつてとなにぬねのはひふへほまみむめもやゆよらりるれろわをん: 26.490234375ms
test_js_string_sb.js:70 sb unchecked arrayあいうえおかきくけこさしすせそたちつてとなにぬねのはひふへほまみむめもやゆよらりるれろわをん: 26.837890625ms
test_js_string_sb.js:70 sb unchecked arrayあいうえおかきくけこさしすせそたちつてとなにぬねのはひふへほまみむめもやゆよらりるれろわをん: 26.586181640625ms
test_js_string_sb.js:70 sb unchecked arrayあいうえおかきくけこさしすせそたちつてとなにぬねのはひふへほまみむめもやゆよらりるれろわをん: 26.610107421875ms
test_js_string_sb.js:70 sb unchecked arrayあいうえおかきくけこさしすせそたちつてとなにぬねのはひふへほまみむめもやゆよらりるれろわをん: 26.572998046875ms
test_js_string_sb.js:70 sb unchecked arrayあいうえおかきくけこさしすせそたちつてとなにぬねのはひふへほまみむめもやゆよらりるれろわをん: 26.490966796875ms
test_js_string_sb.js:70 sb unchecked arrayあいうえおかきくけこさしすせそたちつてとなにぬねのはひふへほまみむめもやゆよらりるれろわをん: 27.100830078125ms
test_js_string_sb.js:70 sb unchecked arrayあいうえおかきくけこさしすせそたちつてとなにぬねのはひふへほまみむめもやゆよらりるれろわをん: 27.1240234375ms
test_js_string_sb.js:29 sb 😃😁😂: 0.64892578125ms
test_js_string_sb.js:29 sb 😃😁😂: 0.695068359375ms
test_js_string_sb.js:29 sb 😃😁😂: 0.6689453125ms
test_js_string_sb.js:29 sb 😃😁😂: 0.676025390625ms
test_js_string_sb.js:29 sb 😃😁😂: 0.66796875ms
test_js_string_sb.js:29 sb 😃😁😂: 0.665283203125ms
test_js_string_sb.js:29 sb 😃😁😂: 0.852783203125ms
test_js_string_sb.js:29 sb 😃😁😂: 0.6748046875ms
test_js_string_sb.js:29 sb 😃😁😂: 0.667236328125ms
test_js_string_sb.js:29 sb 😃😁😂: 0.6689453125ms
test_js_string_sb.js:42 sb unchecked😃😁😂: 0.69189453125ms
test_js_string_sb.js:42 sb unchecked😃😁😂: 0.6611328125ms
test_js_string_sb.js:42 sb unchecked😃😁😂: 0.700927734375ms
test_js_string_sb.js:42 sb unchecked😃😁😂: 0.858154296875ms
test_js_string_sb.js:42 sb unchecked😃😁😂: 0.68408203125ms
test_js_string_sb.js:42 sb unchecked😃😁😂: 0.7529296875ms
test_js_string_sb.js:42 sb unchecked😃😁😂: 0.945068359375ms
test_js_string_sb.js:42 sb unchecked😃😁😂: 0.8369140625ms
test_js_string_sb.js:42 sb unchecked😃😁😂: 0.76416015625ms
test_js_string_sb.js:42 sb unchecked😃😁😂: 0.768798828125ms
test_js_string_sb.js:56 sb array😃😁😂: 2.892822265625ms
test_js_string_sb.js:56 sb array😃😁😂: 2.71484375ms
test_js_string_sb.js:56 sb array😃😁😂: 2.470947265625ms
test_js_string_sb.js:56 sb array😃😁😂: 2.6181640625ms
test_js_string_sb.js:56 sb array😃😁😂: 2.537109375ms
test_js_string_sb.js:56 sb array😃😁😂: 3.031005859375ms
test_js_string_sb.js:56 sb array😃😁😂: 2.566162109375ms
test_js_string_sb.js:56 sb array😃😁😂: 2.720947265625ms
test_js_string_sb.js:56 sb array😃😁😂: 2.4951171875ms
test_js_string_sb.js:56 sb array😃😁😂: 2.748046875ms
test_js_string_sb.js:70 sb unchecked array😃😁😂: 2.44775390625ms
test_js_string_sb.js:70 sb unchecked array😃😁😂: 3.14501953125ms
test_js_string_sb.js:70 sb unchecked array😃😁😂: 2.484130859375ms
test_js_string_sb.js:70 sb unchecked array😃😁😂: 2.655029296875ms
test_js_string_sb.js:70 sb unchecked array😃😁😂: 2.450927734375ms
test_js_string_sb.js:70 sb unchecked array😃😁😂: 2.704833984375ms
test_js_string_sb.js:70 sb unchecked array😃😁😂: 2.472900390625ms
test_js_string_sb.js:70 sb unchecked array😃😁😂: 2.98388671875ms
test_js_string_sb.js:70 sb unchecked array😃😁😂: 2.630126953125ms
test_js_string_sb.js:70 sb unchecked array😃😁😂: 2.8388671875ms
test_js_string_sb.js:29 sb 😃😁😂😃😁😂😃😁😂😃😁😂😃😁😂😃😁😂😃😁😂😃😁😂😃😁😂😃😁😂😃😁😂😃😁😂😃😁😂😃😁😂😃😁😂😃😁😂: 5.93310546875ms
test_js_string_sb.js:29 sb 😃😁😂😃😁😂😃😁😂😃😁😂😃😁😂😃😁😂😃😁😂😃😁😂😃😁😂😃😁😂😃😁😂😃😁😂😃😁😂😃😁😂😃😁😂😃😁😂: 6.173828125ms
test_js_string_sb.js:29 sb 😃😁😂😃😁😂😃😁😂😃😁😂😃😁😂😃😁😂😃😁😂😃😁😂😃😁😂😃😁😂😃😁😂😃😁😂😃😁😂😃😁😂😃😁😂😃😁😂: 5.731201171875ms
test_js_string_sb.js:29 sb 😃😁😂😃😁😂😃😁😂😃😁😂😃😁😂😃😁😂😃😁😂😃😁😂😃😁😂😃😁😂😃😁😂😃😁😂😃😁😂😃😁😂😃😁😂😃😁😂: 6.011962890625ms
test_js_string_sb.js:29 sb 😃😁😂😃😁😂😃😁😂😃😁😂😃😁😂😃😁😂😃😁😂😃😁😂😃😁😂😃😁😂😃😁😂😃😁😂😃😁😂😃😁😂😃😁😂😃😁😂: 6.2119140625ms
test_js_string_sb.js:29 sb 😃😁😂😃😁😂😃😁😂😃😁😂😃😁😂😃😁😂😃😁😂😃😁😂😃😁😂😃😁😂😃😁😂😃😁😂😃😁😂😃😁😂😃😁😂😃😁😂: 6.783203125ms
test_js_string_sb.js:29 sb 😃😁😂😃😁😂😃😁😂😃😁😂😃😁😂😃😁😂😃😁😂😃😁😂😃😁😂😃😁😂😃😁😂😃😁😂😃😁😂😃😁😂😃😁😂😃😁😂: 5.82421875ms
test_js_string_sb.js:29 sb 😃😁😂😃😁😂😃😁😂😃😁😂😃😁😂😃😁😂😃😁😂😃😁😂😃😁😂😃😁😂😃😁😂😃😁😂😃😁😂😃😁😂😃😁😂😃😁😂: 6.375244140625ms
test_js_string_sb.js:29 sb 😃😁😂😃😁😂😃😁😂😃😁😂😃😁😂😃😁😂😃😁😂😃😁😂😃😁😂😃😁😂😃😁😂😃😁😂😃😁😂😃😁😂😃😁😂😃😁😂: 5.9130859375ms
test_js_string_sb.js:29 sb 😃😁😂😃😁😂😃😁😂😃😁😂😃😁😂😃😁😂😃😁😂😃😁😂😃😁😂😃😁😂😃😁😂😃😁😂😃😁😂😃😁😂😃😁😂😃😁😂: 6.39208984375ms
test_js_string_sb.js:42 sb unchecked😃😁😂😃😁😂😃😁😂😃😁😂😃😁😂😃😁😂😃😁😂😃😁😂😃😁😂😃😁😂😃😁😂😃😁😂😃😁😂😃😁😂😃😁😂😃😁😂: 6.529052734375ms
test_js_string_sb.js:42 sb unchecked😃😁😂😃😁😂😃😁😂😃😁😂😃😁😂😃😁😂😃😁😂😃😁😂😃😁😂😃😁😂😃😁😂😃😁😂😃😁😂😃😁😂😃😁😂😃😁😂: 5.860107421875ms
test_js_string_sb.js:42 sb unchecked😃😁😂😃😁😂😃😁😂😃😁😂😃😁😂😃😁😂😃😁😂😃😁😂😃😁😂😃😁😂😃😁😂😃😁😂😃😁😂😃😁😂😃😁😂😃😁😂: 6.381103515625ms
test_js_string_sb.js:42 sb unchecked😃😁😂😃😁😂😃😁😂😃😁😂😃😁😂😃😁😂😃😁😂😃😁😂😃😁😂😃😁😂😃😁😂😃😁😂😃😁😂😃😁😂😃😁😂😃😁😂: 5.85302734375ms
test_js_string_sb.js:42 sb unchecked😃😁😂😃😁😂😃😁😂😃😁😂😃😁😂😃😁😂😃😁😂😃😁😂😃😁😂😃😁😂😃😁😂😃😁😂😃😁😂😃😁😂😃😁😂😃😁😂: 6.427978515625ms
test_js_string_sb.js:42 sb unchecked😃😁😂😃😁😂😃😁😂😃😁😂😃😁😂😃😁😂😃😁😂😃😁😂😃😁😂😃😁😂😃😁😂😃😁😂😃😁😂😃😁😂😃😁😂😃😁😂: 6.126220703125ms
test_js_string_sb.js:42 sb unchecked😃😁😂😃😁😂😃😁😂😃😁😂😃😁😂😃😁😂😃😁😂😃😁😂😃😁😂😃😁😂😃😁😂😃😁😂😃😁😂😃😁😂😃😁😂😃😁😂: 6.009033203125ms
test_js_string_sb.js:42 sb unchecked😃😁😂😃😁😂😃😁😂😃😁😂😃😁😂😃😁😂😃😁😂😃😁😂😃😁😂😃😁😂😃😁😂😃😁😂😃😁😂😃😁😂😃😁😂😃😁😂: 6.395263671875ms
test_js_string_sb.js:42 sb unchecked😃😁😂😃😁😂😃😁😂😃😁😂😃😁😂😃😁😂😃😁😂😃😁😂😃😁😂😃😁😂😃😁😂😃😁😂😃😁😂😃😁😂😃😁😂😃😁😂: 6.000244140625ms
test_js_string_sb.js:42 sb unchecked😃😁😂😃😁😂😃😁😂😃😁😂😃😁😂😃😁😂😃😁😂😃😁😂😃😁😂😃😁😂😃😁😂😃😁😂😃😁😂😃😁😂😃😁😂😃😁😂: 5.826904296875ms
test_js_string_sb.js:56 sb array😃😁😂😃😁😂😃😁😂😃😁😂😃😁😂😃😁😂😃😁😂😃😁😂😃😁😂😃😁😂😃😁😂😃😁😂😃😁😂😃😁😂😃😁😂😃😁😂: 28.52001953125ms
test_js_string_sb.js:56 sb array😃😁😂😃😁😂😃😁😂😃😁😂😃😁😂😃😁😂😃😁😂😃😁😂😃😁😂😃😁😂😃😁😂😃😁😂😃😁😂😃😁😂😃😁😂😃😁😂: 28.23193359375ms
test_js_string_sb.js:56 sb array😃😁😂😃😁😂😃😁😂😃😁😂😃😁😂😃😁😂😃😁😂😃😁😂😃😁😂😃😁😂😃😁😂😃😁😂😃😁😂😃😁😂😃😁😂😃😁😂: 28.76708984375ms
test_js_string_sb.js:56 sb array😃😁😂😃😁😂😃😁😂😃😁😂😃😁😂😃😁😂😃😁😂😃😁😂😃😁😂😃😁😂😃😁😂😃😁😂😃😁😂😃😁😂😃😁😂😃😁😂: 27.40771484375ms
test_js_string_sb.js:56 sb array😃😁😂😃😁😂😃😁😂😃😁😂😃😁😂😃😁😂😃😁😂😃😁😂😃😁😂😃😁😂😃😁😂😃😁😂😃😁😂😃😁😂😃😁😂😃😁😂: 27.958740234375ms
test_js_string_sb.js:56 sb array😃😁😂😃😁😂😃😁😂😃😁😂😃😁😂😃😁😂😃😁😂😃😁😂😃😁😂😃😁😂😃😁😂😃😁😂😃😁😂😃😁😂😃😁😂😃😁😂: 28.013916015625ms
test_js_string_sb.js:56 sb array😃😁😂😃😁😂😃😁😂😃😁😂😃😁😂😃😁😂😃😁😂😃😁😂😃😁😂😃😁😂😃😁😂😃😁😂😃😁😂😃😁😂😃😁😂😃😁😂: 27.60205078125ms
test_js_string_sb.js:56 sb array😃😁😂😃😁😂😃😁😂😃😁😂😃😁😂😃😁😂😃😁😂😃😁😂😃😁😂😃😁😂😃😁😂😃😁😂😃😁😂😃😁😂😃😁😂😃😁😂: 28.02294921875ms
test_js_string_sb.js:56 sb array😃😁😂😃😁😂😃😁😂😃😁😂😃😁😂😃😁😂😃😁😂😃😁😂😃😁😂😃😁😂😃😁😂😃😁😂😃😁😂😃😁😂😃😁😂😃😁😂: 27.785888671875ms
test_js_string_sb.js:56 sb array😃😁😂😃😁😂😃😁😂😃😁😂😃😁😂😃😁😂😃😁😂😃😁😂😃😁😂😃😁😂😃😁😂😃😁😂😃😁😂😃😁😂😃😁😂😃😁😂: 27.29296875ms
test_js_string_sb.js:70 sb unchecked array😃😁😂😃😁😂😃😁😂😃😁😂😃😁😂😃😁😂😃😁😂😃😁😂😃😁😂😃😁😂😃😁😂😃😁😂😃😁😂😃😁😂😃😁😂😃😁😂: 29.32177734375ms
test_js_string_sb.js:70 sb unchecked array😃😁😂😃😁😂😃😁😂😃😁😂😃😁😂😃😁😂😃😁😂😃😁😂😃😁😂😃😁😂😃😁😂😃😁😂😃😁😂😃😁😂😃😁😂😃😁😂: 28.239990234375ms
test_js_string_sb.js:70 sb unchecked array😃😁😂😃😁😂😃😁😂😃😁😂😃😁😂😃😁😂😃😁😂😃😁😂😃😁😂😃😁😂😃😁😂😃😁😂😃😁😂😃😁😂😃😁😂😃😁😂: 27.4560546875ms
test_js_string_sb.js:70 sb unchecked array😃😁😂😃😁😂😃😁😂😃😁😂😃😁😂😃😁😂😃😁😂😃😁😂😃😁😂😃😁😂😃😁😂😃😁😂😃😁😂😃😁😂😃😁😂😃😁😂: 27.83203125ms
test_js_string_sb.js:70 sb unchecked array😃😁😂😃😁😂😃😁😂😃😁😂😃😁😂😃😁😂😃😁😂😃😁😂😃😁😂😃😁😂😃😁😂😃😁😂😃😁😂😃😁😂😃😁😂😃😁😂: 27.637939453125ms
test_js_string_sb.js:70 sb unchecked array😃😁😂😃😁😂😃😁😂😃😁😂😃😁😂😃😁😂😃😁😂😃😁😂😃😁😂😃😁😂😃😁😂😃😁😂😃😁😂😃😁😂😃😁😂😃😁😂: 27.7509765625ms
test_js_string_sb.js:70 sb unchecked array😃😁😂😃😁😂😃😁😂😃😁😂😃😁😂😃😁😂😃😁😂😃😁😂😃😁😂😃😁😂😃😁😂😃😁😂😃😁😂😃😁😂😃😁😂😃😁😂: 28.930908203125ms
test_js_string_sb.js:70 sb unchecked array😃😁😂😃😁😂😃😁😂😃😁😂😃😁😂😃😁😂😃😁😂😃😁😂😃😁😂😃😁😂😃😁😂😃😁😂😃😁😂😃😁😂😃😁😂😃😁😂: 27.7099609375ms
test_js_string_sb.js:70 sb unchecked array😃😁😂😃😁😂😃😁😂😃😁😂😃😁😂😃😁😂😃😁😂😃😁😂😃😁😂😃😁😂😃😁😂😃😁😂😃😁😂😃😁😂😃😁😂😃😁😂: 27.224853515625ms
test_js_string_sb.js:70 sb unchecked array😃😁😂😃😁😂😃😁😂😃😁😂😃😁😂😃😁😂😃😁😂😃😁😂😃😁😂😃😁😂😃😁😂😃😁😂😃😁😂😃😁😂😃😁😂😃😁😂: 29.89794921875ms
test_js_string_sb.js:29 sb ABCDE: 0.55615234375ms
test_js_string_sb.js:29 sb ABCDE: 0.885009765625ms
test_js_string_sb.js:29 sb ABCDE: 0.701171875ms
test_js_string_sb.js:29 sb ABCDE: 0.596923828125ms
2test_js_string_sb.js:29 sb ABCDE: 0.608154296875ms
test_js_string_sb.js:29 sb ABCDE: 0.612060546875ms
test_js_string_sb.js:29 sb ABCDE: 0.55712890625ms
test_js_string_sb.js:29 sb ABCDE: 0.542724609375ms
test_js_string_sb.js:29 sb ABCDE: 0.544921875ms
test_js_string_sb.js:42 sb uncheckedABCDE: 0.56591796875ms
test_js_string_sb.js:42 sb uncheckedABCDE: 0.55419921875ms
test_js_string_sb.js:42 sb uncheckedABCDE: 0.55322265625ms
test_js_string_sb.js:42 sb uncheckedABCDE: 0.555908203125ms
test_js_string_sb.js:42 sb uncheckedABCDE: 0.593994140625ms
test_js_string_sb.js:42 sb uncheckedABCDE: 0.55224609375ms
test_js_string_sb.js:42 sb uncheckedABCDE: 0.551025390625ms
test_js_string_sb.js:42 sb uncheckedABCDE: 0.55615234375ms
test_js_string_sb.js:42 sb uncheckedABCDE: 0.563232421875ms
test_js_string_sb.js:42 sb uncheckedABCDE: 0.899169921875ms
test_js_string_sb.js:56 sb arrayABCDE: 3.668212890625ms
test_js_string_sb.js:56 sb arrayABCDE: 6.89013671875ms
test_js_string_sb.js:56 sb arrayABCDE: 3.550048828125ms
test_js_string_sb.js:56 sb arrayABCDE: 3.511962890625ms
test_js_string_sb.js:56 sb arrayABCDE: 3.884033203125ms
test_js_string_sb.js:56 sb arrayABCDE: 3.428955078125ms
test_js_string_sb.js:56 sb arrayABCDE: 3.15234375ms
test_js_string_sb.js:56 sb arrayABCDE: 3.97900390625ms
test_js_string_sb.js:56 sb arrayABCDE: 3.169921875ms
test_js_string_sb.js:56 sb arrayABCDE: 3.31298828125ms
test_js_string_sb.js:70 sb unchecked arrayABCDE: 3.47314453125ms
test_js_string_sb.js:70 sb unchecked arrayABCDE: 5.034912109375ms
test_js_string_sb.js:70 sb unchecked arrayABCDE: 2.964111328125ms
test_js_string_sb.js:70 sb unchecked arrayABCDE: 3.90966796875ms
test_js_string_sb.js:70 sb unchecked arrayABCDE: 3.282958984375ms
test_js_string_sb.js:70 sb unchecked arrayABCDE: 2.991943359375ms
test_js_string_sb.js:70 sb unchecked arrayABCDE: 3.8720703125ms
test_js_string_sb.js:70 sb unchecked arrayABCDE: 2.97802734375ms
test_js_string_sb.js:70 sb unchecked arrayABCDE: 3.119873046875ms
test_js_string_sb.js:70 sb unchecked arrayABCDE: 3.508056640625ms
test_js_string_sb.js:29 sb あああああ: 1.193115234375ms
test_js_string_sb.js:29 sb あああああ: 1.112060546875ms
test_js_string_sb.js:29 sb あああああ: 2.31103515625ms
test_js_string_sb.js:29 sb あああああ: 0.84716796875ms
test_js_string_sb.js:29 sb あああああ: 0.84619140625ms
test_js_string_sb.js:29 sb あああああ: 0.8349609375ms
test_js_string_sb.js:29 sb あああああ: 0.843017578125ms
test_js_string_sb.js:29 sb あああああ: 0.84912109375ms
test_js_string_sb.js:29 sb あああああ: 0.8369140625ms
test_js_string_sb.js:29 sb あああああ: 1.1220703125ms
test_js_string_sb.js:42 sb uncheckedあああああ: 1.050048828125ms
test_js_string_sb.js:42 sb uncheckedあああああ: 0.94189453125ms
test_js_string_sb.js:42 sb uncheckedあああああ: 0.96484375ms
test_js_string_sb.js:42 sb uncheckedあああああ: 0.85791015625ms
test_js_string_sb.js:42 sb uncheckedあああああ: 0.85302734375ms
test_js_string_sb.js:42 sb uncheckedあああああ: 1.431884765625ms
test_js_string_sb.js:42 sb uncheckedあああああ: 0.844970703125ms
test_js_string_sb.js:42 sb uncheckedあああああ: 0.89404296875ms
test_js_string_sb.js:42 sb uncheckedあああああ: 1.144775390625ms
test_js_string_sb.js:42 sb uncheckedあああああ: 0.850341796875ms
test_js_string_sb.js:56 sb arrayあああああ: 4.400146484375ms
test_js_string_sb.js:56 sb arrayあああああ: 4.661865234375ms
test_js_string_sb.js:56 sb arrayあああああ: 4.427978515625ms
test_js_string_sb.js:56 sb arrayあああああ: 6.71484375ms
test_js_string_sb.js:56 sb arrayあああああ: 4.781982421875ms
test_js_string_sb.js:56 sb arrayあああああ: 4.546875ms
test_js_string_sb.js:56 sb arrayあああああ: 4.327880859375ms
test_js_string_sb.js:56 sb arrayあああああ: 6.998046875ms
test_js_string_sb.js:56 sb arrayあああああ: 4.714111328125ms
test_js_string_sb.js:56 sb arrayあああああ: 4.17578125ms
test_js_string_sb.js:70 sb unchecked arrayあああああ: 3.962890625ms
test_js_string_sb.js:70 sb unchecked arrayあああああ: 5.89208984375ms
test_js_string_sb.js:70 sb unchecked arrayあああああ: 4.529052734375ms
test_js_string_sb.js:70 sb unchecked arrayあああああ: 4.130126953125ms
test_js_string_sb.js:70 sb unchecked arrayあああああ: 7.10498046875ms
test_js_string_sb.js:70 sb unchecked arrayあああああ: 4.1748046875ms
test_js_string_sb.js:70 sb unchecked arrayあああああ: 3.858154296875ms
test_js_string_sb.js:70 sb unchecked arrayあああああ: 4.279052734375ms
test_js_string_sb.js:70 sb unchecked arrayあああああ: 4.459716796875ms
test_js_string_sb.js:70 sb unchecked arrayあああああ: 4.0107421875ms
test_js_string_sb.js:29 sb ABCDEFGHIJKLMNOPQRSTUVWXYZABCDEFGHIJKLMNOPQRSTUVWXYZ: 3.35693359375ms
test_js_string_sb.js:29 sb ABCDEFGHIJKLMNOPQRSTUVWXYZABCDEFGHIJKLMNOPQRSTUVWXYZ: 3.925048828125ms
test_js_string_sb.js:29 sb ABCDEFGHIJKLMNOPQRSTUVWXYZABCDEFGHIJKLMNOPQRSTUVWXYZ: 3.530029296875ms
test_js_string_sb.js:29 sb ABCDEFGHIJKLMNOPQRSTUVWXYZABCDEFGHIJKLMNOPQRSTUVWXYZ: 3.358154296875ms
test_js_string_sb.js:29 sb ABCDEFGHIJKLMNOPQRSTUVWXYZABCDEFGHIJKLMNOPQRSTUVWXYZ: 3.360107421875ms
test_js_string_sb.js:29 sb ABCDEFGHIJKLMNOPQRSTUVWXYZABCDEFGHIJKLMNOPQRSTUVWXYZ: 3.787109375ms
test_js_string_sb.js:29 sb ABCDEFGHIJKLMNOPQRSTUVWXYZABCDEFGHIJKLMNOPQRSTUVWXYZ: 3.68310546875ms
test_js_string_sb.js:29 sb ABCDEFGHIJKLMNOPQRSTUVWXYZABCDEFGHIJKLMNOPQRSTUVWXYZ: 3.390869140625ms
test_js_string_sb.js:29 sb ABCDEFGHIJKLMNOPQRSTUVWXYZABCDEFGHIJKLMNOPQRSTUVWXYZ: 3.330078125ms
test_js_string_sb.js:29 sb ABCDEFGHIJKLMNOPQRSTUVWXYZABCDEFGHIJKLMNOPQRSTUVWXYZ: 3.326171875ms
test_js_string_sb.js:42 sb uncheckedABCDEFGHIJKLMNOPQRSTUVWXYZABCDEFGHIJKLMNOPQRSTUVWXYZ: 6.2041015625ms
test_js_string_sb.js:42 sb uncheckedABCDEFGHIJKLMNOPQRSTUVWXYZABCDEFGHIJKLMNOPQRSTUVWXYZ: 3.3330078125ms
test_js_string_sb.js:42 sb uncheckedABCDEFGHIJKLMNOPQRSTUVWXYZABCDEFGHIJKLMNOPQRSTUVWXYZ: 3.331787109375ms
test_js_string_sb.js:42 sb uncheckedABCDEFGHIJKLMNOPQRSTUVWXYZABCDEFGHIJKLMNOPQRSTUVWXYZ: 3.450927734375ms
test_js_string_sb.js:42 sb uncheckedABCDEFGHIJKLMNOPQRSTUVWXYZABCDEFGHIJKLMNOPQRSTUVWXYZ: 3.31103515625ms
test_js_string_sb.js:42 sb uncheckedABCDEFGHIJKLMNOPQRSTUVWXYZABCDEFGHIJKLMNOPQRSTUVWXYZ: 3.62890625ms
test_js_string_sb.js:42 sb uncheckedABCDEFGHIJKLMNOPQRSTUVWXYZABCDEFGHIJKLMNOPQRSTUVWXYZ: 3.241943359375ms
test_js_string_sb.js:42 sb uncheckedABCDEFGHIJKLMNOPQRSTUVWXYZABCDEFGHIJKLMNOPQRSTUVWXYZ: 3.331787109375ms
test_js_string_sb.js:42 sb uncheckedABCDEFGHIJKLMNOPQRSTUVWXYZABCDEFGHIJKLMNOPQRSTUVWXYZ: 3.693115234375ms
test_js_string_sb.js:42 sb uncheckedABCDEFGHIJKLMNOPQRSTUVWXYZABCDEFGHIJKLMNOPQRSTUVWXYZ: 3.3759765625ms
test_js_string_sb.js:56 sb arrayABCDEFGHIJKLMNOPQRSTUVWXYZABCDEFGHIJKLMNOPQRSTUVWXYZ: 21.959228515625ms
test_js_string_sb.js:56 sb arrayABCDEFGHIJKLMNOPQRSTUVWXYZABCDEFGHIJKLMNOPQRSTUVWXYZ: 22.080810546875ms
test_js_string_sb.js:56 sb arrayABCDEFGHIJKLMNOPQRSTUVWXYZABCDEFGHIJKLMNOPQRSTUVWXYZ: 21.548095703125ms
test_js_string_sb.js:56 sb arrayABCDEFGHIJKLMNOPQRSTUVWXYZABCDEFGHIJKLMNOPQRSTUVWXYZ: 22.51708984375ms
test_js_string_sb.js:56 sb arrayABCDEFGHIJKLMNOPQRSTUVWXYZABCDEFGHIJKLMNOPQRSTUVWXYZ: 21.798095703125ms
test_js_string_sb.js:56 sb arrayABCDEFGHIJKLMNOPQRSTUVWXYZABCDEFGHIJKLMNOPQRSTUVWXYZ: 21.9873046875ms
test_js_string_sb.js:56 sb arrayABCDEFGHIJKLMNOPQRSTUVWXYZABCDEFGHIJKLMNOPQRSTUVWXYZ: 22.442138671875ms
test_js_string_sb.js:56 sb arrayABCDEFGHIJKLMNOPQRSTUVWXYZABCDEFGHIJKLMNOPQRSTUVWXYZ: 21.736083984375ms
test_js_string_sb.js:56 sb arrayABCDEFGHIJKLMNOPQRSTUVWXYZABCDEFGHIJKLMNOPQRSTUVWXYZ: 21.783935546875ms
test_js_string_sb.js:56 sb arrayABCDEFGHIJKLMNOPQRSTUVWXYZABCDEFGHIJKLMNOPQRSTUVWXYZ: 22.2880859375ms
test_js_string_sb.js:70 sb unchecked arrayABCDEFGHIJKLMNOPQRSTUVWXYZABCDEFGHIJKLMNOPQRSTUVWXYZ: 21.990966796875ms
test_js_string_sb.js:70 sb unchecked arrayABCDEFGHIJKLMNOPQRSTUVWXYZABCDEFGHIJKLMNOPQRSTUVWXYZ: 21.338134765625ms
test_js_string_sb.js:70 sb unchecked arrayABCDEFGHIJKLMNOPQRSTUVWXYZABCDEFGHIJKLMNOPQRSTUVWXYZ: 22.68994140625ms
test_js_string_sb.js:70 sb unchecked arrayABCDEFGHIJKLMNOPQRSTUVWXYZABCDEFGHIJKLMNOPQRSTUVWXYZ: 21.52294921875ms
test_js_string_sb.js:70 sb unchecked arrayABCDEFGHIJKLMNOPQRSTUVWXYZABCDEFGHIJKLMNOPQRSTUVWXYZ: 21.701171875ms
test_js_string_sb.js:70 sb unchecked arrayABCDEFGHIJKLMNOPQRSTUVWXYZABCDEFGHIJKLMNOPQRSTUVWXYZ: 22.384765625ms
test_js_string_sb.js:70 sb unchecked arrayABCDEFGHIJKLMNOPQRSTUVWXYZABCDEFGHIJKLMNOPQRSTUVWXYZ: 21.7021484375ms
test_js_string_sb.js:70 sb unchecked arrayABCDEFGHIJKLMNOPQRSTUVWXYZABCDEFGHIJKLMNOPQRSTUVWXYZ: 21.5361328125ms
test_js_string_sb.js:70 sb unchecked arrayABCDEFGHIJKLMNOPQRSTUVWXYZABCDEFGHIJKLMNOPQRSTUVWXYZ: 22.701904296875ms
test_js_string_sb.js:70 sb unchecked arrayABCDEFGHIJKLMNOPQRSTUVWXYZABCDEFGHIJKLMNOPQRSTUVWXYZ: 22.631103515625ms
test_js_string_sb.js:29 sb あいうえおかきくけこさしすせそたちつてとなにぬねのはひふへほまみむめもやゆよらりるれろわをん: 5.218994140625ms
test_js_string_sb.js:29 sb あいうえおかきくけこさしすせそたちつてとなにぬねのはひふへほまみむめもやゆよらりるれろわをん: 5.179931640625ms
test_js_string_sb.js:29 sb あいうえおかきくけこさしすせそたちつてとなにぬねのはひふへほまみむめもやゆよらりるれろわをん: 5.096923828125ms
test_js_string_sb.js:29 sb あいうえおかきくけこさしすせそたちつてとなにぬねのはひふへほまみむめもやゆよらりるれろわをん: 5.3251953125ms
test_js_string_sb.js:29 sb あいうえおかきくけこさしすせそたちつてとなにぬねのはひふへほまみむめもやゆよらりるれろわをん: 5.4619140625ms
test_js_string_sb.js:29 sb あいうえおかきくけこさしすせそたちつてとなにぬねのはひふへほまみむめもやゆよらりるれろわをん: 4.86669921875ms
test_js_string_sb.js:29 sb あいうえおかきくけこさしすせそたちつてとなにぬねのはひふへほまみむめもやゆよらりるれろわをん: 5.1650390625ms
test_js_string_sb.js:29 sb あいうえおかきくけこさしすせそたちつてとなにぬねのはひふへほまみむめもやゆよらりるれろわをん: 5.44140625ms
test_js_string_sb.js:29 sb あいうえおかきくけこさしすせそたちつてとなにぬねのはひふへほまみむめもやゆよらりるれろわをん: 5.090087890625ms
test_js_string_sb.js:29 sb あいうえおかきくけこさしすせそたちつてとなにぬねのはひふへほまみむめもやゆよらりるれろわをん: 5.02685546875ms
test_js_string_sb.js:42 sb uncheckedあいうえおかきくけこさしすせそたちつてとなにぬねのはひふへほまみむめもやゆよらりるれろわをん: 5.2900390625ms
test_js_string_sb.js:42 sb uncheckedあいうえおかきくけこさしすせそたちつてとなにぬねのはひふへほまみむめもやゆよらりるれろわをん: 4.93994140625ms
test_js_string_sb.js:42 sb uncheckedあいうえおかきくけこさしすせそたちつてとなにぬねのはひふへほまみむめもやゆよらりるれろわをん: 5.05224609375ms
test_js_string_sb.js:42 sb uncheckedあいうえおかきくけこさしすせそたちつてとなにぬねのはひふへほまみむめもやゆよらりるれろわをん: 4.864990234375ms
test_js_string_sb.js:42 sb uncheckedあいうえおかきくけこさしすせそたちつてとなにぬねのはひふへほまみむめもやゆよらりるれろわをん: 5.12109375ms
test_js_string_sb.js:42 sb uncheckedあいうえおかきくけこさしすせそたちつてとなにぬねのはひふへほまみむめもやゆよらりるれろわをん: 5.2041015625ms
test_js_string_sb.js:42 sb uncheckedあいうえおかきくけこさしすせそたちつてとなにぬねのはひふへほまみむめもやゆよらりるれろわをん: 5.02490234375ms
test_js_string_sb.js:42 sb uncheckedあいうえおかきくけこさしすせそたちつてとなにぬねのはひふへほまみむめもやゆよらりるれろわをん: 4.89404296875ms
test_js_string_sb.js:42 sb uncheckedあいうえおかきくけこさしすせそたちつてとなにぬねのはひふへほまみむめもやゆよらりるれろわをん: 5.006103515625ms
test_js_string_sb.js:42 sb uncheckedあいうえおかきくけこさしすせそたちつてとなにぬねのはひふへほまみむめもやゆよらりるれろわをん: 4.94921875ms
test_js_string_sb.js:56 sb arrayあいうえおかきくけこさしすせそたちつてとなにぬねのはひふへほまみむめもやゆよらりるれろわをん: 26.819091796875ms
test_js_string_sb.js:56 sb arrayあいうえおかきくけこさしすせそたちつてとなにぬねのはひふへほまみむめもやゆよらりるれろわをん: 26.676025390625ms
test_js_string_sb.js:56 sb arrayあいうえおかきくけこさしすせそたちつてとなにぬねのはひふへほまみむめもやゆよらりるれろわをん: 26.47802734375ms
test_js_string_sb.js:56 sb arrayあいうえおかきくけこさしすせそたちつてとなにぬねのはひふへほまみむめもやゆよらりるれろわをん: 26.999755859375ms
test_js_string_sb.js:56 sb arrayあいうえおかきくけこさしすせそたちつてとなにぬねのはひふへほまみむめもやゆよらりるれろわをん: 26.3408203125ms
test_js_string_sb.js:56 sb arrayあいうえおかきくけこさしすせそたちつてとなにぬねのはひふへほまみむめもやゆよらりるれろわをん: 26.344970703125ms
test_js_string_sb.js:56 sb arrayあいうえおかきくけこさしすせそたちつてとなにぬねのはひふへほまみむめもやゆよらりるれろわをん: 26.823974609375ms
test_js_string_sb.js:56 sb arrayあいうえおかきくけこさしすせそたちつてとなにぬねのはひふへほまみむめもやゆよらりるれろわをん: 26.033935546875ms
test_js_string_sb.js:56 sb arrayあいうえおかきくけこさしすせそたちつてとなにぬねのはひふへほまみむめもやゆよらりるれろわをん: 26.396240234375ms
test_js_string_sb.js:56 sb arrayあいうえおかきくけこさしすせそたちつてとなにぬねのはひふへほまみむめもやゆよらりるれろわをん: 26.2001953125ms
test_js_string_sb.js:70 sb unchecked arrayあいうえおかきくけこさしすせそたちつてとなにぬねのはひふへほまみむめもやゆよらりるれろわをん: 26.32080078125ms
test_js_string_sb.js:70 sb unchecked arrayあいうえおかきくけこさしすせそたちつてとなにぬねのはひふへほまみむめもやゆよらりるれろわをん: 26.4580078125ms
test_js_string_sb.js:70 sb unchecked arrayあいうえおかきくけこさしすせそたちつてとなにぬねのはひふへほまみむめもやゆよらりるれろわをん: 25.869140625ms
test_js_string_sb.js:70 sb unchecked arrayあいうえおかきくけこさしすせそたちつてとなにぬねのはひふへほまみむめもやゆよらりるれろわをん: 26.4130859375ms
test_js_string_sb.js:70 sb unchecked arrayあいうえおかきくけこさしすせそたちつてとなにぬねのはひふへほまみむめもやゆよらりるれろわをん: 25.9189453125ms
test_js_string_sb.js:70 sb unchecked arrayあいうえおかきくけこさしすせそたちつてとなにぬねのはひふへほまみむめもやゆよらりるれろわをん: 25.923095703125ms
test_js_string_sb.js:70 sb unchecked arrayあいうえおかきくけこさしすせそたちつてとなにぬねのはひふへほまみむめもやゆよらりるれろわをん: 26.0556640625ms
test_js_string_sb.js:70 sb unchecked arrayあいうえおかきくけこさしすせそたちつてとなにぬねのはひふへほまみむめもやゆよらりるれろわをん: 26.493896484375ms
test_js_string_sb.js:70 sb unchecked arrayあいうえおかきくけこさしすせそたちつてとなにぬねのはひふへほまみむめもやゆよらりるれろわをん: 25.7158203125ms
test_js_string_sb.js:70 sb unchecked arrayあいうえおかきくけこさしすせそたちつてとなにぬねのはひふへほまみむめもやゆよらりるれろわをん: 25.985107421875ms
test_js_string_sb.js:29 sb 😃😁😂: 0.708984375ms
test_js_string_sb.js:29 sb 😃😁😂: 0.736083984375ms
test_js_string_sb.js:29 sb 😃😁😂: 0.693115234375ms
test_js_string_sb.js:29 sb 😃😁😂: 0.72119140625ms
test_js_string_sb.js:29 sb 😃😁😂: 0.7158203125ms
test_js_string_sb.js:29 sb 😃😁😂: 0.733154296875ms
test_js_string_sb.js:29 sb 😃😁😂: 0.88623046875ms
test_js_string_sb.js:29 sb 😃😁😂: 0.762939453125ms
test_js_string_sb.js:29 sb 😃😁😂: 0.7939453125ms
test_js_string_sb.js:29 sb 😃😁😂: 0.722900390625ms
test_js_string_sb.js:42 sb unchecked😃😁😂: 1.012939453125ms
test_js_string_sb.js:42 sb unchecked😃😁😂: 0.695068359375ms
test_js_string_sb.js:42 sb unchecked😃😁😂: 0.685791015625ms
test_js_string_sb.js:42 sb unchecked😃😁😂: 0.664794921875ms
test_js_string_sb.js:42 sb unchecked😃😁😂: 0.657958984375ms
test_js_string_sb.js:42 sb unchecked😃😁😂: 0.658935546875ms
test_js_string_sb.js:42 sb unchecked😃😁😂: 0.6650390625ms
test_js_string_sb.js:42 sb unchecked😃😁😂: 0.66796875ms
test_js_string_sb.js:42 sb unchecked😃😁😂: 0.666015625ms
test_js_string_sb.js:42 sb unchecked😃😁😂: 0.666748046875ms
test_js_string_sb.js:56 sb array😃😁😂: 2.732177734375ms
test_js_string_sb.js:56 sb array😃😁😂: 3.0009765625ms
test_js_string_sb.js:56 sb array😃😁😂: 3.169921875ms
test_js_string_sb.js:56 sb array😃😁😂: 2.610107421875ms
test_js_string_sb.js:56 sb array😃😁😂: 2.583984375ms
test_js_string_sb.js:56 sb array😃😁😂: 2.85595703125ms
test_js_string_sb.js:56 sb array😃😁😂: 2.616943359375ms
test_js_string_sb.js:56 sb array😃😁😂: 2.6669921875ms
test_js_string_sb.js:56 sb array😃😁😂: 3.973876953125ms
test_js_string_sb.js:56 sb array😃😁😂: 2.851806640625ms
test_js_string_sb.js:70 sb unchecked array😃😁😂: 2.4599609375ms
test_js_string_sb.js:70 sb unchecked array😃😁😂: 2.467041015625ms
test_js_string_sb.js:70 sb unchecked array😃😁😂: 2.572998046875ms
test_js_string_sb.js:70 sb unchecked array😃😁😂: 3.995849609375ms
test_js_string_sb.js:70 sb unchecked array😃😁😂: 2.451171875ms
test_js_string_sb.js:70 sb unchecked array😃😁😂: 2.430908203125ms
test_js_string_sb.js:70 sb unchecked array😃😁😂: 2.447021484375ms
test_js_string_sb.js:70 sb unchecked array😃😁😂: 2.7080078125ms
test_js_string_sb.js:70 sb unchecked array😃😁😂: 2.519287109375ms
test_js_string_sb.js:70 sb unchecked array😃😁😂: 2.806884765625ms
test_js_string_sb.js:29 sb 😃😁😂😃😁😂😃😁😂😃😁😂😃😁😂😃😁😂😃😁😂😃😁😂😃😁😂😃😁😂😃😁😂😃😁😂😃😁😂😃😁😂😃😁😂😃😁😂: 5.919921875ms
test_js_string_sb.js:29 sb 😃😁😂😃😁😂😃😁😂😃😁😂😃😁😂😃😁😂😃😁😂😃😁😂😃😁😂😃😁😂😃😁😂😃😁😂😃😁😂😃😁😂😃😁😂😃😁😂: 5.861083984375ms
test_js_string_sb.js:29 sb 😃😁😂😃😁😂😃😁😂😃😁😂😃😁😂😃😁😂😃😁😂😃😁😂😃😁😂😃😁😂😃😁😂😃😁😂😃😁😂😃😁😂😃😁😂😃😁😂: 6.26416015625ms
test_js_string_sb.js:29 sb 😃😁😂😃😁😂😃😁😂😃😁😂😃😁😂😃😁😂😃😁😂😃😁😂😃😁😂😃😁😂😃😁😂😃😁😂😃😁😂😃😁😂😃😁😂😃😁😂: 5.658935546875ms
test_js_string_sb.js:29 sb 😃😁😂😃😁😂😃😁😂😃😁😂😃😁😂😃😁😂😃😁😂😃😁😂😃😁😂😃😁😂😃😁😂😃😁😂😃😁😂😃😁😂😃😁😂😃😁😂: 6.038818359375ms
test_js_string_sb.js:29 sb 😃😁😂😃😁😂😃😁😂😃😁😂😃😁😂😃😁😂😃😁😂😃😁😂😃😁😂😃😁😂😃😁😂😃😁😂😃😁😂😃😁😂😃😁😂😃😁😂: 6.22119140625ms
test_js_string_sb.js:29 sb 😃😁😂😃😁😂😃😁😂😃😁😂😃😁😂😃😁😂😃😁😂😃😁😂😃😁😂😃😁😂😃😁😂😃😁😂😃😁😂😃😁😂😃😁😂😃😁😂: 5.85791015625ms
test_js_string_sb.js:29 sb 😃😁😂😃😁😂😃😁😂😃😁😂😃😁😂😃😁😂😃😁😂😃😁😂😃😁😂😃😁😂😃😁😂😃😁😂😃😁😂😃😁😂😃😁😂😃😁😂: 5.843994140625ms
test_js_string_sb.js:29 sb 😃😁😂😃😁😂😃😁😂😃😁😂😃😁😂😃😁😂😃😁😂😃😁😂😃😁😂😃😁😂😃😁😂😃😁😂😃😁😂😃😁😂😃😁😂😃😁😂: 6.135009765625ms
test_js_string_sb.js:29 sb 😃😁😂😃😁😂😃😁😂😃😁😂😃😁😂😃😁😂😃😁😂😃😁😂😃😁😂😃😁😂😃😁😂😃😁😂😃😁😂😃😁😂😃😁😂😃😁😂: 6.05322265625ms
test_js_string_sb.js:42 sb unchecked😃😁😂😃😁😂😃😁😂😃😁😂😃😁😂😃😁😂😃😁😂😃😁😂😃😁😂😃😁😂😃😁😂😃😁😂😃😁😂😃😁😂😃😁😂😃😁😂: 6.234130859375ms
test_js_string_sb.js:42 sb unchecked😃😁😂😃😁😂😃😁😂😃😁😂😃😁😂😃😁😂😃😁😂😃😁😂😃😁😂😃😁😂😃😁😂😃😁😂😃😁😂😃😁😂😃😁😂😃😁😂: 5.837890625ms
test_js_string_sb.js:42 sb unchecked😃😁😂😃😁😂😃😁😂😃😁😂😃😁😂😃😁😂😃😁😂😃😁😂😃😁😂😃😁😂😃😁😂😃😁😂😃😁😂😃😁😂😃😁😂😃😁😂: 5.84814453125ms
test_js_string_sb.js:42 sb unchecked😃😁😂😃😁😂😃😁😂😃😁😂😃😁😂😃😁😂😃😁😂😃😁😂😃😁😂😃😁😂😃😁😂😃😁😂😃😁😂😃😁😂😃😁😂😃😁😂: 6.15087890625ms
test_js_string_sb.js:42 sb unchecked😃😁😂😃😁😂😃😁😂😃😁😂😃😁😂😃😁😂😃😁😂😃😁😂😃😁😂😃😁😂😃😁😂😃😁😂😃😁😂😃😁😂😃😁😂😃😁😂: 6.028076171875ms
test_js_string_sb.js:42 sb unchecked😃😁😂😃😁😂😃😁😂😃😁😂😃😁😂😃😁😂😃😁😂😃😁😂😃😁😂😃😁😂😃😁😂😃😁😂😃😁😂😃😁😂😃😁😂😃😁😂: 5.84912109375ms
test_js_string_sb.js:42 sb unchecked😃😁😂😃😁😂😃😁😂😃😁😂😃😁😂😃😁😂😃😁😂😃😁😂😃😁😂😃😁😂😃😁😂😃😁😂😃😁😂😃😁😂😃😁😂😃😁😂: 5.7900390625ms
test_js_string_sb.js:42 sb unchecked😃😁😂😃😁😂😃😁😂😃😁😂😃😁😂😃😁😂😃😁😂😃😁😂😃😁😂😃😁😂😃😁😂😃😁😂😃😁😂😃😁😂😃😁😂😃😁😂: 5.835205078125ms
test_js_string_sb.js:42 sb unchecked😃😁😂😃😁😂😃😁😂😃😁😂😃😁😂😃😁😂😃😁😂😃😁😂😃😁😂😃😁😂😃😁😂😃😁😂😃😁😂😃😁😂😃😁😂😃😁😂: 6.0029296875ms
test_js_string_sb.js:42 sb unchecked😃😁😂😃😁😂😃😁😂😃😁😂😃😁😂😃😁😂😃😁😂😃😁😂😃😁😂😃😁😂😃😁😂😃😁😂😃😁😂😃😁😂😃😁😂😃😁😂: 5.967041015625ms
test_js_string_sb.js:56 sb array😃😁😂😃😁😂😃😁😂😃😁😂😃😁😂😃😁😂😃😁😂😃😁😂😃😁😂😃😁😂😃😁😂😃😁😂😃😁😂😃😁😂😃😁😂😃😁😂: 27.7451171875ms
test_js_string_sb.js:56 sb array😃😁😂😃😁😂😃😁😂😃😁😂😃😁😂😃😁😂😃😁😂😃😁😂😃😁😂😃😁😂😃😁😂😃😁😂😃😁😂😃😁😂😃😁😂😃😁😂: 27.611083984375ms
test_js_string_sb.js:56 sb array😃😁😂😃😁😂😃😁😂😃😁😂😃😁😂😃😁😂😃😁😂😃😁😂😃😁😂😃😁😂😃😁😂😃😁😂😃😁😂😃😁😂😃😁😂😃😁😂: 32.429931640625ms
test_js_string_sb.js:56 sb array😃😁😂😃😁😂😃😁😂😃😁😂😃😁😂😃😁😂😃😁😂😃😁😂😃😁😂😃😁😂😃😁😂😃😁😂😃😁😂😃😁😂😃😁😂😃😁😂: 27.501953125ms
test_js_string_sb.js:56 sb array😃😁😂😃😁😂😃😁😂😃😁😂😃😁😂😃😁😂😃😁😂😃😁😂😃😁😂😃😁😂😃😁😂😃😁😂😃😁😂😃😁😂😃😁😂😃😁😂: 27.850830078125ms
test_js_string_sb.js:56 sb array😃😁😂😃😁😂😃😁😂😃😁😂😃😁😂😃😁😂😃😁😂😃😁😂😃😁😂😃😁😂😃😁😂😃😁😂😃😁😂😃😁😂😃😁😂😃😁😂: 29.730224609375ms
test_js_string_sb.js:56 sb array😃😁😂😃😁😂😃😁😂😃😁😂😃😁😂😃😁😂😃😁😂😃😁😂😃😁😂😃😁😂😃😁😂😃😁😂😃😁😂😃😁😂😃😁😂😃😁😂: 27.625ms
test_js_string_sb.js:56 sb array😃😁😂😃😁😂😃😁😂😃😁😂😃😁😂😃😁😂😃😁😂😃😁😂😃😁😂😃😁😂😃😁😂😃😁😂😃😁😂😃😁😂😃😁😂😃😁😂: 27.468017578125ms
test_js_string_sb.js:56 sb array😃😁😂😃😁😂😃😁😂😃😁😂😃😁😂😃😁😂😃😁😂😃😁😂😃😁😂😃😁😂😃😁😂😃😁😂😃😁😂😃😁😂😃😁😂😃😁😂: 27.85888671875ms
test_js_string_sb.js:56 sb array😃😁😂😃😁😂😃😁😂😃😁😂😃😁😂😃😁😂😃😁😂😃😁😂😃😁😂😃😁😂😃😁😂😃😁😂😃😁😂😃😁😂😃😁😂😃😁😂: 27.734130859375ms
test_js_string_sb.js:70 sb unchecked array😃😁😂😃😁😂😃😁😂😃😁😂😃😁😂😃😁😂😃😁😂😃😁😂😃😁😂😃😁😂😃😁😂😃😁😂😃😁😂😃😁😂😃😁😂😃😁😂: 26.824951171875ms
test_js_string_sb.js:70 sb unchecked array😃😁😂😃😁😂😃😁😂😃😁😂😃😁😂😃😁😂😃😁😂😃😁😂😃😁😂😃😁😂😃😁😂😃😁😂😃😁😂😃😁😂😃😁😂😃😁😂: 27.323974609375ms
test_js_string_sb.js:70 sb unchecked array😃😁😂😃😁😂😃😁😂😃😁😂😃😁😂😃😁😂😃😁😂😃😁😂😃😁😂😃😁😂😃😁😂😃😁😂😃😁😂😃😁😂😃😁😂😃😁😂: 27.81396484375ms
test_js_string_sb.js:70 sb unchecked array😃😁😂😃😁😂😃😁😂😃😁😂😃😁😂😃😁😂😃😁😂😃😁😂😃😁😂😃😁😂😃😁😂😃😁😂😃😁😂😃😁😂😃😁😂😃😁😂: 26.672607421875ms
test_js_string_sb.js:70 sb unchecked array😃😁😂😃😁😂😃😁😂😃😁😂😃😁😂😃😁😂😃😁😂😃😁😂😃😁😂😃😁😂😃😁😂😃😁😂😃😁😂😃😁😂😃😁😂😃😁😂: 27.63427734375ms
test_js_string_sb.js:70 sb unchecked array😃😁😂😃😁😂😃😁😂😃😁😂😃😁😂😃😁😂😃😁😂😃😁😂😃😁😂😃😁😂😃😁😂😃😁😂😃😁😂😃😁😂😃😁😂😃😁😂: 27.015869140625ms
test_js_string_sb.js:70 sb unchecked array😃😁😂😃😁😂😃😁😂😃😁😂😃😁😂😃😁😂😃😁😂😃😁😂😃😁😂😃😁😂😃😁😂😃😁😂😃😁😂😃😁😂😃😁😂😃😁😂: 27.60009765625ms
test_js_string_sb.js:70 sb unchecked array😃😁😂😃😁😂😃😁😂😃😁😂😃😁😂😃😁😂😃😁😂😃😁😂😃😁😂😃😁😂😃😁😂😃😁😂😃😁😂😃😁😂😃😁😂😃😁😂: 27.500244140625ms
test_js_string_sb.js:70 sb unchecked array😃😁😂😃😁😂😃😁😂😃😁😂😃😁😂😃😁😂😃😁😂😃😁😂😃😁😂😃😁😂😃😁😂😃😁😂😃😁😂😃😁😂😃😁😂😃😁😂: 27.029052734375ms
test_js_string_sb.js:70 sb unchecked array😃😁😂😃😁😂😃😁😂😃😁😂😃😁😂😃😁😂😃😁😂😃😁😂😃😁😂😃😁😂😃😁😂😃😁😂😃😁😂😃😁😂😃😁😂😃😁😂: 27.1689453125ms
test_js_string_sb.js:88 done 431434980000